0.28046196818988683
Fitting 20 folds for each of 800 candidates, totalling 16000 fits
[Parallel(n_jobs=-1)]: Using backend LokyBackend with 16 concurrent workers.
[Parallel(n_jobs=-1)]: Done  18 tasks      | elapsed:    0.0s
[Parallel(n_jobs=-1)]: Done 1120 tasks      | elapsed:    1.3s
[Parallel(n_jobs=-1)]: Done 5120 tasks      | elapsed:    6.6s
[Parallel(n_jobs=-1)]: Done 10720 tasks      | elapsed:   14.4s
[Parallel(n_jobs=-1)]: Done 16000 out of 16000 | elapsed:   21.6s finished
{'metric': 'euclidean', 'n_neighbors': 1, 'weights': 'uniform'}
C:\Users\tim\miniconda3\envs\ml\lib\site-packages\sklearn\model_selection\_split.py:670: UserWarning: The least populated class in y has only 2 members, which is less than n_splits=5.
  warnings.warn(("The least populated class in y has only %d"
0.3608680917621076
1: 0.3608680917621076
2: 0.30645353145353144
3: 0.28439175767767716
4: 0.31675677941238106
5: 0.28046196818988683
6: 0.2756845971678507
7: 0.27607228068512196
8: 0.25612911831399227
9: 0.268465563301244
10: 0.2574405327054296
11: 0.257307082980454
12: 0.2692485882711796
13: 0.27070023442101826
14: 0.25984888190076866
15: 0.264409920071943
16: 0.26509234261004416
17: 0.27958120180088636
18: 0.276025401303817
19: 0.2769300866414723
20: 0.27127602348355384
21: 0.2750558966325672
22: 0.2708361505521749
23: 0.267428068855976
24: 0.2662427235836407
25: 0.2609924277788587
26: 0.2644427516451893
27: 0.2679107679107679
28: 0.2728470879525949
29: 0.2712054194303132
30: 0.2713783537682909
31: 0.2696686061219327
32: 0.2681471688097246
33: 0.2713485611446084
34: 0.26457491067144995
35: 0.27133573929668536
36: 0.2693226133932001
37: 0.27040670824823826
38: 0.2700409517040647
39: 0.26662412514816386
40: 0.26786328252115016
41: 0.26158790894183476
42: 0.2654367430602253
43: 0.2677733780079196
44: 0.26759985916770396
45: 0.26482945364896004
46: 0.2670217112942308
47: 0.26464714571741804
48: 0.2662724600946084
49: 0.2704913829700968
50: 0.2719921301854075
51: 0.2684389567791232
52: 0.26847928530306114
53: 0.2703661701082316
54: 0.26735695084739336
55: 0.2728537322972863
56: 0.2768148007084901
57: 0.2791338688205284
58: 0.27677391301758053
59: 0.2744431105775644
60: 0.2754017089758601
61: 0.27202934232583825
62: 0.2795798249229622
63: 0.2808355695361345
64: 0.2783203084556098
65: 0.2794137396834882
66: 0.2829767732106439
67: 0.28187667977425396
68: 0.2829767732106439
69: 0.2807428929261813
70: 0.27963646324175156
71: 0.2880921840180071
72: 0.2871105354663306
73: 0.28805762139095475
74: 0.2850078958566149
75: 0.2839019768431533
76: 0.2774144555535812
77: 0.2892258033434504
78: 0.27706648462342043
79: 0.2778282854052026
80: 0.27405572450973165
81: 0.2804422432452345
82: 0.27578797359415186
83: 0.2745600816643982
84: 0.2727725551638595
85: 0.2707440863323216
86: 0.2638006078035448
87: 0.265993265993266
88: 0.26641659645256766
89: 0.2601583223580478
90: 0.267687074829932
91: 0.2675427225786938
92: 0.26877872952230525
93: 0.26398836558978905
94: 0.26657611757107297
95: 0.26397340441829825
96: 0.26272573337732935
97: 0.2639422783894948
98: 0.26397340441829825
99: 0.26074185880359035
100: 0.25609605993711954
best k: 1, f1: 0.3608680917621076
