digraph Tree {
node [shape=box] ;
0 [label="alcohol <= 0.772\ngini = 0.833\nsamples = 1279\nvalue = [213.167, 213.167, 213.167, 213.167, 213.167, 213.167]"] ;
1 [label="volatile acidity <= 1.633\ngini = 0.801\nsamples = 1001\nvalue = [213.167, 188.38, 202.807, 155.03, 88.386, 35.528]"] ;
0 -> 1 [labeldistance=2.5, labelangle=45, headlabel="True"] ;
2 [label="alcohol <= -1.305\ngini = 0.792\nsamples = 936\nvalue = [53.292, 133.849, 188.862, 149.67, 88.386, 35.528]"] ;
1 -> 2 ;
3 [label="fixed acidity <= 1.132\ngini = 0.439\nsamples = 28\nvalue = [53.292, 9.915, 4.383, 5.36, 0.0, 0.0]"] ;
2 -> 3 ;
4 [label="sulphates <= -0.835\ngini = 0.595\nsamples = 22\nvalue = [0.0, 9.915, 3.586, 4.535, 0.0, 0.0]"] ;
3 -> 4 ;
5 [label="pH <= 0.165\ngini = 0.077\nsamples = 3\nvalue = [0.0, 9.915, 0.0, 0.412, 0.0, 0.0]"] ;
4 -> 5 ;
6 [label="gini = 0.0\nsamples = 1\nvalue = [0.0, 0.0, 0.0, 0.412, 0.0, 0.0]"] ;
5 -> 6 ;
7 [label="gini = 0.0\nsamples = 2\nvalue = [0.0, 9.915, 0.0, 0.0, 0.0, 0.0]"] ;
5 -> 7 ;
8 [label="total sulfur dioxide <= -0.21\ngini = 0.498\nsamples = 19\nvalue = [0.0, 0.0, 3.586, 4.123, 0.0, 0.0]"] ;
4 -> 8 ;
9 [label="pH <= 0.942\ngini = 0.192\nsamples = 9\nvalue = [0.0, 0.0, 0.398, 3.299, 0.0, 0.0]"] ;
8 -> 9 ;
10 [label="gini = 0.0\nsamples = 8\nvalue = [0.0, 0.0, 0.0, 3.299, 0.0, 0.0]"] ;
9 -> 10 ;
11 [label="gini = -0.0\nsamples = 1\nvalue = [0.0, 0.0, 0.398, 0.0, 0.0, 0.0]"] ;
9 -> 11 ;
12 [label="fixed acidity <= 1.017\ngini = 0.327\nsamples = 10\nvalue = [0.0, 0.0, 3.188, 0.825, 0.0, 0.0]"] ;
8 -> 12 ;
13 [label="alcohol <= -1.655\ngini = 0.0\nsamples = 8\nvalue = [0.0, 0.0, 3.188, 0.0, 0.0, 0.0]"] ;
12 -> 13 ;
14 [label="gini = 0.0\nsamples = 1\nvalue = [0.0, 0.0, 0.398, 0.0, 0.0, 0.0]"] ;
13 -> 14 ;
15 [label="gini = 0.0\nsamples = 7\nvalue = [0.0, 0.0, 2.789, 0.0, 0.0, 0.0]"] ;
13 -> 15 ;
16 [label="gini = 0.0\nsamples = 2\nvalue = [0.0, 0.0, 0.0, 0.825, 0.0, 0.0]"] ;
12 -> 16 ;
17 [label="volatile acidity <= 0.306\ngini = 0.058\nsamples = 6\nvalue = [53.292, 0.0, 0.797, 0.825, 0.0, 0.0]"] ;
3 -> 17 ;
18 [label="density <= 1.971\ngini = 0.5\nsamples = 4\nvalue = [0.0, 0.0, 0.797, 0.825, 0.0, 0.0]"] ;
17 -> 18 ;
19 [label="gini = 0.0\nsamples = 2\nvalue = [0.0, 0.0, 0.797, 0.0, 0.0, 0.0]"] ;
18 -> 19 ;
20 [label="gini = -0.0\nsamples = 2\nvalue = [0.0, 0.0, 0.0, 0.825, 0.0, 0.0]"] ;
18 -> 20 ;
21 [label="gini = 0.0\nsamples = 2\nvalue = [53.292, 0.0, 0.0, 0.0, 0.0, 0.0]"] ;
17 -> 21 ;
22 [label="volatile acidity <= -0.837\ngini = 0.762\nsamples = 908\nvalue = [0.0, 123.934, 184.479, 144.31, 88.386, 35.528]"] ;
2 -> 22 ;
23 [label="citric acid <= 1.286\ngini = 0.755\nsamples = 175\nvalue = [0.0, 9.915, 19.125, 34.634, 50.692, 35.528]"] ;
22 -> 23 ;
24 [label="sulphates <= -0.142\ngini = 0.689\nsamples = 141\nvalue = [0.0, 9.915, 15.141, 29.274, 38.994, 0.0]"] ;
23 -> 24 ;
25 [label="chlorides <= -0.383\ngini = 0.713\nsamples = 47\nvalue = [0.0, 9.915, 9.164, 8.246, 2.6, 0.0]"] ;
24 -> 25 ;
26 [label="residual sugar <= -0.411\ngini = 0.572\nsamples = 13\nvalue = [0.0, 9.915, 1.992, 1.649, 2.6, 0.0]"] ;
25 -> 26 ;
27 [label="pH <= -0.19\ngini = 0.604\nsamples = 8\nvalue = [0.0, 0.0, 1.594, 0.825, 2.6, 0.0]"] ;
26 -> 27 ;
28 [label="gini = 0.0\nsamples = 2\nvalue = [0.0, 0.0, 0.0, 0.0, 2.6, 0.0]"] ;
27 -> 28 ;
29 [label="citric acid <= 0.592\ngini = 0.449\nsamples = 6\nvalue = [0.0, 0.0, 1.594, 0.825, 0.0, 0.0]"] ;
27 -> 29 ;
30 [label="total sulfur dioxide <= 1.183\ngini = 0.439\nsamples = 3\nvalue = [0.0, 0.0, 0.398, 0.825, 0.0, 0.0]"] ;
29 -> 30 ;
31 [label="citric acid <= 0.335\ngini = 0.0\nsamples = 2\nvalue = [0.0, 0.0, 0.0, 0.825, 0.0, 0.0]"] ;
30 -> 31 ;
32 [label="gini = 0.0\nsamples = 1\nvalue = [0.0, 0.0, 0.0, 0.412, 0.0, 0.0]"] ;
31 -> 32 ;
33 [label="gini = 0.0\nsamples = 1\nvalue = [0.0, 0.0, 0.0, 0.412, 0.0, 0.0]"] ;
31 -> 33 ;
34 [label="gini = -0.0\nsamples = 1\nvalue = [0.0, 0.0, 0.398, 0.0, 0.0, 0.0]"] ;
30 -> 34 ;
35 [label="gini = -0.0\nsamples = 3\nvalue = [0.0, 0.0, 1.195, 0.0, 0.0, 0.0]"] ;
29 -> 35 ;
36 [label="density <= -0.046\ngini = 0.201\nsamples = 5\nvalue = [0.0, 9.915, 0.398, 0.825, 0.0, 0.0]"] ;
26 -> 36 ;
37 [label="gini = 0.0\nsamples = 2\nvalue = [0.0, 9.915, 0.0, 0.0, 0.0, 0.0]"] ;
36 -> 37 ;
38 [label="fixed acidity <= 1.362\ngini = 0.439\nsamples = 3\nvalue = [0.0, 0.0, 0.398, 0.825, 0.0, 0.0]"] ;
36 -> 38 ;
39 [label="alcohol <= -0.348\ngini = 0.0\nsamples = 2\nvalue = [0.0, 0.0, 0.0, 0.825, 0.0, 0.0]"] ;
38 -> 39 ;
40 [label="gini = 0.0\nsamples = 1\nvalue = [0.0, 0.0, 0.0, 0.412, 0.0, 0.0]"] ;
39 -> 40 ;
41 [label="gini = 0.0\nsamples = 1\nvalue = [0.0, 0.0, 0.0, 0.412, 0.0, 0.0]"] ;
39 -> 41 ;
42 [label="gini = -0.0\nsamples = 1\nvalue = [0.0, 0.0, 0.398, 0.0, 0.0, 0.0]"] ;
38 -> 42 ;
43 [label="density <= 0.246\ngini = 0.499\nsamples = 34\nvalue = [0.0, 0.0, 7.172, 6.597, 0.0, 0.0]"] ;
25 -> 43 ;
44 [label="fixed acidity <= -1.052\ngini = 0.477\nsamples = 25\nvalue = [0.0, 0.0, 3.984, 6.185, 0.0, 0.0]"] ;
43 -> 44 ;
45 [label="gini = 0.0\nsamples = 4\nvalue = [0.0, 0.0, 1.594, 0.0, 0.0, 0.0]"] ;
44 -> 45 ;
46 [label="free sulfur dioxide <= 1.188\ngini = 0.402\nsamples = 21\nvalue = [0.0, 0.0, 2.391, 6.185, 0.0, 0.0]"] ;
44 -> 46 ;
47 [label="pH <= 1.168\ngini = 0.225\nsamples = 15\nvalue = [0.0, 0.0, 0.797, 5.36, 0.0, 0.0]"] ;
46 -> 47 ;
48 [label="chlorides <= 0.351\ngini = 0.129\nsamples = 14\nvalue = [0.0, 0.0, 0.398, 5.36, 0.0, 0.0]"] ;
47 -> 48 ;
49 [label="gini = 0.0\nsamples = 13\nvalue = [0.0, 0.0, 0.0, 5.36, 0.0, 0.0]"] ;
48 -> 49 ;
50 [label="gini = 0.0\nsamples = 1\nvalue = [0.0, 0.0, 0.398, 0.0, 0.0, 0.0]"] ;
48 -> 50 ;
51 [label="gini = 0.0\nsamples = 1\nvalue = [0.0, 0.0, 0.398, 0.0, 0.0, 0.0]"] ;
47 -> 51 ;
52 [label="pH <= 0.715\ngini = 0.449\nsamples = 6\nvalue = [0.0, 0.0, 1.594, 0.825, 0.0, 0.0]"] ;
46 -> 52 ;
53 [label="fixed acidity <= -0.448\ngini = 0.439\nsamples = 3\nvalue = [0.0, 0.0, 0.398, 0.825, 0.0, 0.0]"] ;
52 -> 53 ;
54 [label="alcohol <= -0.582\ngini = 0.0\nsamples = 2\nvalue = [0.0, 0.0, 0.0, 0.825, 0.0, 0.0]"] ;
53 -> 54 ;
55 [label="gini = 0.0\nsamples = 1\nvalue = [0.0, 0.0, 0.0, 0.412, 0.0, 0.0]"] ;
54 -> 55 ;
56 [label="gini = 0.0\nsamples = 1\nvalue = [0.0, 0.0, 0.0, 0.412, 0.0, 0.0]"] ;
54 -> 56 ;
57 [label="gini = -0.0\nsamples = 1\nvalue = [0.0, 0.0, 0.398, 0.0, 0.0, 0.0]"] ;
53 -> 57 ;
58 [label="gini = -0.0\nsamples = 3\nvalue = [0.0, 0.0, 1.195, 0.0, 0.0, 0.0]"] ;
52 -> 58 ;
59 [label="total sulfur dioxide <= -1.078\ngini = 0.203\nsamples = 9\nvalue = [0.0, 0.0, 3.188, 0.412, 0.0, 0.0]"] ;
43 -> 59 ;
60 [label="gini = 0.0\nsamples = 1\nvalue = [0.0, 0.0, 0.0, 0.412, 0.0, 0.0]"] ;
59 -> 60 ;
61 [label="gini = 0.0\nsamples = 8\nvalue = [0.0, 0.0, 3.188, 0.0, 0.0, 0.0]"] ;
59 -> 61 ;
62 [label="chlorides <= -0.192\ngini = 0.552\nsamples = 94\nvalue = [0.0, 0.0, 5.977, 21.028, 36.394, 0.0]"] ;
24 -> 62 ;
63 [label="residual sugar <= 0.26\ngini = 0.432\nsamples = 59\nvalue = [0.0, 0.0, 2.391, 11.132, 33.795, 0.0]"] ;
62 -> 63 ;
64 [label="citric acid <= 0.309\ngini = 0.39\nsamples = 53\nvalue = [0.0, 0.0, 1.992, 9.071, 33.795, 0.0]"] ;
63 -> 64 ;
65 [label="sulphates <= 0.608\ngini = 0.653\nsamples = 12\nvalue = [0.0, 0.0, 1.594, 2.474, 2.6, 0.0]"] ;
64 -> 65 ;
66 [label="volatile acidity <= -1.147\ngini = 0.23\nsamples = 3\nvalue = [0.0, 0.0, 0.398, 0.0, 2.6, 0.0]"] ;
65 -> 66 ;
67 [label="gini = 0.0\nsamples = 2\nvalue = [0.0, 0.0, 0.0, 0.0, 2.6, 0.0]"] ;
66 -> 67 ;
68 [label="gini = -0.0\nsamples = 1\nvalue = [0.0, 0.0, 0.398, 0.0, 0.0, 0.0]"] ;
66 -> 68 ;
69 [label="sulphates <= 1.503\ngini = 0.439\nsamples = 9\nvalue = [0.0, 0.0, 1.195, 2.474, 0.0, 0.0]"] ;
65 -> 69 ;
70 [label="gini = 0.0\nsamples = 6\nvalue = [0.0, 0.0, 0.0, 2.474, 0.0, 0.0]"] ;
69 -> 70 ;
71 [label="gini = 0.0\nsamples = 3\nvalue = [0.0, 0.0, 1.195, 0.0, 0.0, 0.0]"] ;
69 -> 71 ;
72 [label="volatile acidity <= -1.797\ngini = 0.303\nsamples = 41\nvalue = [0.0, 0.0, 0.398, 6.597, 31.195, 0.0]"] ;
64 -> 72 ;
73 [label="citric acid <= 0.695\ngini = 0.369\nsamples = 4\nvalue = [0.0, 0.0, 0.398, 1.237, 0.0, 0.0]"] ;
72 -> 73 ;
74 [label="gini = 0.0\nsamples = 1\nvalue = [0.0, 0.0, 0.398, 0.0, 0.0, 0.0]"] ;
73 -> 74 ;
75 [label="gini = 0.0\nsamples = 3\nvalue = [0.0, 0.0, 0.0, 1.237, 0.0, 0.0]"] ;
73 -> 75 ;
76 [label="sulphates <= 2.283\ngini = 0.25\nsamples = 37\nvalue = [0.0, 0.0, 0.0, 5.36, 31.195, 0.0]"] ;
72 -> 76 ;
77 [label="pH <= -0.352\ngini = 0.222\nsamples = 35\nvalue = [0.0, 0.0, 0.0, 4.535, 31.195, 0.0]"] ;
76 -> 77 ;
78 [label="free sulfur dioxide <= 0.745\ngini = 0.1\nsamples = 20\nvalue = [0.0, 0.0, 0.0, 1.237, 22.097, 0.0]"] ;
77 -> 78 ;
79 [label="citric acid <= 0.361\ngini = 0.069\nsamples = 19\nvalue = [0.0, 0.0, 0.0, 0.825, 22.097, 0.0]"] ;
78 -> 79 ;
80 [label="gini = 0.0\nsamples = 1\nvalue = [0.0, 0.0, 0.0, 0.412, 0.0, 0.0]"] ;
79 -> 80 ;
81 [label="chlorides <= -0.725\ngini = 0.036\nsamples = 18\nvalue = [0.0, 0.0, 0.0, 0.412, 22.097, 0.0]"] ;
79 -> 81 ;
82 [label="volatile acidity <= -1.119\ngini = 0.366\nsamples = 2\nvalue = [0.0, 0.0, 0.0, 0.412, 1.3, 0.0]"] ;
81 -> 82 ;
83 [label="gini = 0.0\nsamples = 1\nvalue = [0.0, 0.0, 0.0, 0.412, 0.0, 0.0]"] ;
82 -> 83 ;
84 [label="gini = 0.0\nsamples = 1\nvalue = [0.0, 0.0, 0.0, 0.0, 1.3, 0.0]"] ;
82 -> 84 ;
85 [label="gini = 0.0\nsamples = 16\nvalue = [0.0, 0.0, 0.0, 0.0, 20.797, 0.0]"] ;
81 -> 85 ;
86 [label="gini = -0.0\nsamples = 1\nvalue = [0.0, 0.0, 0.0, 0.412, 0.0, 0.0]"] ;
78 -> 86 ;
87 [label="residual sugar <= -0.411\ngini = 0.391\nsamples = 15\nvalue = [0.0, 0.0, 0.0, 3.299, 9.099, 0.0]"] ;
77 -> 87 ;
88 [label="volatile acidity <= -1.035\ngini = 0.428\nsamples = 8\nvalue = [0.0, 0.0, 0.0, 2.886, 1.3, 0.0]"] ;
87 -> 88 ;
89 [label="gini = -0.0\nsamples = 7\nvalue = [0.0, 0.0, 0.0, 2.886, 0.0, 0.0]"] ;
88 -> 89 ;
90 [label="gini = 0.0\nsamples = 1\nvalue = [0.0, 0.0, 0.0, 0.0, 1.3, 0.0]"] ;
88 -> 90 ;
91 [label="residual sugar <= -0.142\ngini = 0.095\nsamples = 7\nvalue = [0.0, 0.0, 0.0, 0.412, 7.799, 0.0]"] ;
87 -> 91 ;
92 [label="gini = 0.0\nsamples = 6\nvalue = [0.0, 0.0, 0.0, 0.0, 7.799, 0.0]"] ;
91 -> 92 ;
93 [label="gini = 0.0\nsamples = 1\nvalue = [0.0, 0.0, 0.0, 0.412, 0.0, 0.0]"] ;
91 -> 93 ;
94 [label="density <= 0.312\ngini = 0.0\nsamples = 2\nvalue = [0.0, 0.0, 0.0, 0.825, 0.0, 0.0]"] ;
76 -> 94 ;
95 [label="gini = 0.0\nsamples = 1\nvalue = [0.0, 0.0, 0.0, 0.412, 0.0, 0.0]"] ;
94 -> 95 ;
96 [label="gini = 0.0\nsamples = 1\nvalue = [0.0, 0.0, 0.0, 0.412, 0.0, 0.0]"] ;
94 -> 96 ;
97 [label="density <= 2.471\ngini = 0.271\nsamples = 6\nvalue = [0.0, 0.0, 0.398, 2.062, 0.0, 0.0]"] ;
63 -> 97 ;
98 [label="gini = 0.0\nsamples = 5\nvalue = [0.0, 0.0, 0.0, 2.062, 0.0, 0.0]"] ;
97 -> 98 ;
99 [label="gini = -0.0\nsamples = 1\nvalue = [0.0, 0.0, 0.398, 0.0, 0.0, 0.0]"] ;
97 -> 99 ;
100 [label="chlorides <= -0.072\ngini = 0.545\nsamples = 35\nvalue = [0.0, 0.0, 3.586, 9.896, 2.6, 0.0]"] ;
62 -> 100 ;
101 [label="density <= -0.554\ngini = 0.114\nsamples = 16\nvalue = [0.0, 0.0, 0.398, 6.185, 0.0, 0.0]"] ;
100 -> 101 ;
102 [label="gini = 0.0\nsamples = 1\nvalue = [0.0, 0.0, 0.398, 0.0, 0.0, 0.0]"] ;
101 -> 102 ;
103 [label="gini = 0.0\nsamples = 15\nvalue = [0.0, 0.0, 0.0, 6.185, 0.0, 0.0]"] ;
101 -> 103 ;
104 [label="total sulfur dioxide <= 0.539\ngini = 0.66\nsamples = 19\nvalue = [0.0, 0.0, 3.188, 3.711, 2.6, 0.0]"] ;
100 -> 104 ;
105 [label="alcohol <= 0.119\ngini = 0.61\nsamples = 14\nvalue = [0.0, 0.0, 1.195, 3.711, 2.6, 0.0]"] ;
104 -> 105 ;
106 [label="citric acid <= 1.08\ngini = 0.414\nsamples = 10\nvalue = [0.0, 0.0, 1.195, 2.886, 0.0, 0.0]"] ;
105 -> 106 ;
107 [label="fixed acidity <= 0.327\ngini = 0.381\nsamples = 4\nvalue = [0.0, 0.0, 1.195, 0.412, 0.0, 0.0]"] ;
106 -> 107 ;
108 [label="gini = 0.0\nsamples = 1\nvalue = [0.0, 0.0, 0.0, 0.412, 0.0, 0.0]"] ;
107 -> 108 ;
109 [label="gini = -0.0\nsamples = 3\nvalue = [0.0, 0.0, 1.195, 0.0, 0.0, 0.0]"] ;
107 -> 109 ;
110 [label="gini = 0.0\nsamples = 6\nvalue = [0.0, 0.0, 0.0, 2.474, 0.0, 0.0]"] ;
106 -> 110 ;
111 [label="density <= 0.001\ngini = 0.366\nsamples = 4\nvalue = [0.0, 0.0, 0.0, 0.825, 2.6, 0.0]"] ;
105 -> 111 ;
112 [label="gini = 0.0\nsamples = 2\nvalue = [0.0, 0.0, 0.0, 0.825, 0.0, 0.0]"] ;
111 -> 112 ;
113 [label="gini = 0.0\nsamples = 2\nvalue = [0.0, 0.0, 0.0, 0.0, 2.6, 0.0]"] ;
111 -> 113 ;
114 [label="density <= -0.122\ngini = 0.0\nsamples = 5\nvalue = [0.0, 0.0, 1.992, 0.0, 0.0, 0.0]"] ;
104 -> 114 ;
115 [label="gini = 0.0\nsamples = 1\nvalue = [0.0, 0.0, 0.398, 0.0, 0.0, 0.0]"] ;
114 -> 115 ;
116 [label="gini = 0.0\nsamples = 4\nvalue = [0.0, 0.0, 1.594, 0.0, 0.0, 0.0]"] ;
114 -> 116 ;
117 [label="chlorides <= -0.313\ngini = 0.549\nsamples = 34\nvalue = [0.0, 0.0, 3.984, 5.36, 11.698, 35.528]"] ;
23 -> 117 ;
118 [label="chlorides <= -0.393\ngini = 0.126\nsamples = 6\nvalue = [0.0, 0.0, 0.797, 0.412, 1.3, 35.528]"] ;
117 -> 118 ;
119 [label="alcohol <= 0.305\ngini = 0.547\nsamples = 3\nvalue = [0.0, 0.0, 0.398, 0.412, 1.3, 0.0]"] ;
118 -> 119 ;
120 [label="total sulfur dioxide <= -0.794\ngini = 0.5\nsamples = 2\nvalue = [0.0, 0.0, 0.398, 0.412, 0.0, 0.0]"] ;
119 -> 120 ;
121 [label="gini = 0.0\nsamples = 1\nvalue = [0.0, 0.0, 0.398, 0.0, 0.0, 0.0]"] ;
120 -> 121 ;
122 [label="gini = 0.0\nsamples = 1\nvalue = [0.0, 0.0, 0.0, 0.412, 0.0, 0.0]"] ;
120 -> 122 ;
123 [label="gini = 0.0\nsamples = 1\nvalue = [0.0, 0.0, 0.0, 0.0, 1.3, 0.0]"] ;
119 -> 123 ;
124 [label="density <= 1.194\ngini = 0.022\nsamples = 3\nvalue = [0.0, 0.0, 0.398, 0.0, 0.0, 35.528]"] ;
118 -> 124 ;
125 [label="gini = -0.0\nsamples = 2\nvalue = [0.0, 0.0, 0.0, 0.0, 0.0, 35.528]"] ;
124 -> 125 ;
126 [label="gini = 0.0\nsamples = 1\nvalue = [0.0, 0.0, 0.398, 0.0, 0.0, 0.0]"] ;
124 -> 126 ;
127 [label="alcohol <= 0.305\ngini = 0.584\nsamples = 28\nvalue = [0.0, 0.0, 3.188, 4.948, 10.398, 0.0]"] ;
117 -> 127 ;
128 [label="total sulfur dioxide <= 1.512\ngini = 0.655\nsamples = 20\nvalue = [0.0, 0.0, 3.188, 4.123, 2.6, 0.0]"] ;
127 -> 128 ;
129 [label="sulphates <= 3.178\ngini = 0.611\nsamples = 19\nvalue = [0.0, 0.0, 3.188, 4.123, 1.3, 0.0]"] ;
128 -> 129 ;
130 [label="fixed acidity <= 1.477\ngini = 0.492\nsamples = 18\nvalue = [0.0, 0.0, 3.188, 4.123, 0.0, 0.0]"] ;
129 -> 130 ;
131 [label="fixed acidity <= -0.132\ngini = 0.449\nsamples = 12\nvalue = [0.0, 0.0, 3.188, 1.649, 0.0, 0.0]"] ;
130 -> 131 ;
132 [label="gini = 0.0\nsamples = 3\nvalue = [0.0, 0.0, 0.0, 1.237, 0.0, 0.0]"] ;
131 -> 132 ;
133 [label="alcohol <= -1.188\ngini = 0.203\nsamples = 9\nvalue = [0.0, 0.0, 3.188, 0.412, 0.0, 0.0]"] ;
131 -> 133 ;
134 [label="gini = 0.0\nsamples = 1\nvalue = [0.0, 0.0, 0.0, 0.412, 0.0, 0.0]"] ;
133 -> 134 ;
135 [label="gini = -0.0\nsamples = 8\nvalue = [0.0, 0.0, 3.188, 0.0, 0.0, 0.0]"] ;
133 -> 135 ;
136 [label="gini = 0.0\nsamples = 6\nvalue = [0.0, 0.0, 0.0, 2.474, 0.0, 0.0]"] ;
130 -> 136 ;
137 [label="gini = 0.0\nsamples = 1\nvalue = [0.0, 0.0, 0.0, 0.0, 1.3, 0.0]"] ;
129 -> 137 ;
138 [label="gini = 0.0\nsamples = 1\nvalue = [0.0, 0.0, 0.0, 0.0, 1.3, 0.0]"] ;
128 -> 138 ;
139 [label="fixed acidity <= 0.5\ngini = 0.173\nsamples = 8\nvalue = [0.0, 0.0, 0.0, 0.825, 7.799, 0.0]"] ;
127 -> 139 ;
140 [label="gini = 0.0\nsamples = 2\nvalue = [0.0, 0.0, 0.0, 0.825, 0.0, 0.0]"] ;
139 -> 140 ;
141 [label="gini = 0.0\nsamples = 6\nvalue = [0.0, 0.0, 0.0, 0.0, 7.799, 0.0]"] ;
139 -> 141 ;
142 [label="total sulfur dioxide <= -0.973\ngini = 0.705\nsamples = 733\nvalue = [0.0, 114.019, 165.354, 109.676, 37.694, 0.0]"] ;
22 -> 142 ;
143 [label="alcohol <= -0.722\ngini = 0.46\nsamples = 46\nvalue = [0.0, 39.659, 8.367, 6.597, 1.3, 0.0]"] ;
142 -> 143 ;
144 [label="sulphates <= -0.258\ngini = 0.352\nsamples = 18\nvalue = [0.0, 0.0, 5.578, 1.649, 0.0, 0.0]"] ;
143 -> 144 ;
145 [label="sulphates <= -1.413\ngini = 0.0\nsamples = 10\nvalue = [0.0, 0.0, 3.984, 0.0, 0.0, 0.0]"] ;
144 -> 145 ;
146 [label="gini = 0.0\nsamples = 2\nvalue = [0.0, 0.0, 0.797, 0.0, 0.0, 0.0]"] ;
145 -> 146 ;
147 [label="gini = 0.0\nsamples = 8\nvalue = [0.0, 0.0, 3.188, 0.0, 0.0, 0.0]"] ;
145 -> 147 ;
148 [label="total sulfur dioxide <= -1.063\ngini = 0.5\nsamples = 8\nvalue = [0.0, 0.0, 1.594, 1.649, 0.0, 0.0]"] ;
144 -> 148 ;
149 [label="gini = 0.0\nsamples = 3\nvalue = [0.0, 0.0, 1.195, 0.0, 0.0, 0.0]"] ;
148 -> 149 ;
150 [label="sulphates <= 0.724\ngini = 0.313\nsamples = 5\nvalue = [0.0, 0.0, 0.398, 1.649, 0.0, 0.0]"] ;
148 -> 150 ;
151 [label="gini = 0.0\nsamples = 4\nvalue = [0.0, 0.0, 0.0, 1.649, 0.0, 0.0]"] ;
150 -> 151 ;
152 [label="gini = -0.0\nsamples = 1\nvalue = [0.0, 0.0, 0.398, 0.0, 0.0, 0.0]"] ;
150 -> 152 ;
153 [label="sulphates <= -0.229\ngini = 0.322\nsamples = 28\nvalue = [0.0, 39.659, 2.789, 4.948, 1.3, 0.0]"] ;
143 -> 153 ;
154 [label="residual sugar <= -0.008\ngini = 0.172\nsamples = 18\nvalue = [0.0, 39.659, 2.391, 1.649, 0.0, 0.0]"] ;
153 -> 154 ;
155 [label="pH <= -0.352\ngini = 0.111\nsamples = 14\nvalue = [0.0, 39.659, 1.195, 1.237, 0.0, 0.0]"] ;
154 -> 155 ;
156 [label="free sulfur dioxide <= -1.125\ngini = 0.439\nsamples = 3\nvalue = [0.0, 0.0, 0.398, 0.825, 0.0, 0.0]"] ;
155 -> 156 ;
157 [label="volatile acidity <= 0.292\ngini = 0.0\nsamples = 2\nvalue = [0.0, 0.0, 0.0, 0.825, 0.0, 0.0]"] ;
156 -> 157 ;
158 [label="gini = 0.0\nsamples = 1\nvalue = [0.0, 0.0, 0.0, 0.412, 0.0, 0.0]"] ;
157 -> 158 ;
159 [label="gini = 0.0\nsamples = 1\nvalue = [0.0, 0.0, 0.0, 0.412, 0.0, 0.0]"] ;
157 -> 159 ;
160 [label="gini = -0.0\nsamples = 1\nvalue = [0.0, 0.0, 0.398, 0.0, 0.0, 0.0]"] ;
156 -> 160 ;
161 [label="chlorides <= -0.664\ngini = 0.058\nsamples = 11\nvalue = [0.0, 39.659, 0.797, 0.412, 0.0, 0.0]"] ;
155 -> 161 ;
162 [label="gini = 0.0\nsamples = 1\nvalue = [0.0, 0.0, 0.398, 0.0, 0.0, 0.0]"] ;
161 -> 162 ;
163 [label="fixed acidity <= -0.736\ngini = 0.039\nsamples = 10\nvalue = [0.0, 39.659, 0.398, 0.412, 0.0, 0.0]"] ;
161 -> 163 ;
164 [label="fixed acidity <= -0.88\ngini = 0.143\nsamples = 4\nvalue = [0.0, 9.915, 0.398, 0.412, 0.0, 0.0]"] ;
163 -> 164 ;
165 [label="gini = 0.0\nsamples = 2\nvalue = [0.0, 9.915, 0.0, 0.0, 0.0, 0.0]"] ;
164 -> 165 ;
166 [label="sulphates <= -0.518\ngini = 0.5\nsamples = 2\nvalue = [0.0, 0.0, 0.398, 0.412, 0.0, 0.0]"] ;
164 -> 166 ;
167 [label="gini = 0.0\nsamples = 1\nvalue = [0.0, 0.0, 0.398, 0.0, 0.0, 0.0]"] ;
166 -> 167 ;
168 [label="gini = 0.0\nsamples = 1\nvalue = [0.0, 0.0, 0.0, 0.412, 0.0, 0.0]"] ;
166 -> 168 ;
169 [label="gini = 0.0\nsamples = 6\nvalue = [0.0, 29.744, 0.0, 0.0, 0.0, 0.0]"] ;
163 -> 169 ;
170 [label="volatile acidity <= 0.151\ngini = 0.381\nsamples = 4\nvalue = [0.0, 0.0, 1.195, 0.412, 0.0, 0.0]"] ;
154 -> 170 ;
171 [label="gini = 0.0\nsamples = 1\nvalue = [0.0, 0.0, 0.0, 0.412, 0.0, 0.0]"] ;
170 -> 171 ;
172 [label="gini = -0.0\nsamples = 3\nvalue = [0.0, 0.0, 1.195, 0.0, 0.0, 0.0]"] ;
170 -> 172 ;
173 [label="residual sugar <= 1.166\ngini = 0.49\nsamples = 10\nvalue = [0.0, 0.0, 0.398, 3.299, 1.3, 0.0]"] ;
153 -> 173 ;
174 [label="fixed acidity <= 1.85\ngini = 0.192\nsamples = 9\nvalue = [0.0, 0.0, 0.398, 3.299, 0.0, 0.0]"] ;
173 -> 174 ;
175 [label="fixed acidity <= -1.052\ngini = 0.0\nsamples = 8\nvalue = [0.0, 0.0, 0.0, 3.299, 0.0, 0.0]"] ;
174 -> 175 ;
176 [label="gini = 0.0\nsamples = 1\nvalue = [0.0, 0.0, 0.0, 0.412, 0.0, 0.0]"] ;
175 -> 176 ;
177 [label="gini = 0.0\nsamples = 7\nvalue = [0.0, 0.0, 0.0, 2.886, 0.0, 0.0]"] ;
175 -> 177 ;
178 [label="gini = -0.0\nsamples = 1\nvalue = [0.0, 0.0, 0.398, 0.0, 0.0, 0.0]"] ;
174 -> 178 ;
179 [label="gini = 0.0\nsamples = 1\nvalue = [0.0, 0.0, 0.0, 0.0, 1.3, 0.0]"] ;
173 -> 179 ;
180 [label="alcohol <= -0.535\ngini = 0.694\nsamples = 687\nvalue = [0.0, 74.36, 156.986, 103.079, 36.394, 0.0]"] ;
142 -> 180 ;
181 [label="sulphates <= 2.398\ngini = 0.61\nsamples = 369\nvalue = [0.0, 49.574, 105.986, 37.108, 3.899, 0.0]"] ;
180 -> 181 ;
182 [label="sulphates <= -1.124\ngini = 0.589\nsamples = 351\nvalue = [0.0, 34.702, 100.806, 36.284, 3.899, 0.0]"] ;
181 -> 182 ;
183 [label="pH <= 0.36\ngini = 0.459\nsamples = 22\nvalue = [0.0, 14.872, 7.172, 0.412, 0.0, 0.0]"] ;
182 -> 183 ;
184 [label="volatile acidity <= -0.639\ngini = 0.103\nsamples = 19\nvalue = [0.0, 0.0, 7.172, 0.412, 0.0, 0.0]"] ;
183 -> 184 ;
185 [label="gini = 0.0\nsamples = 1\nvalue = [0.0, 0.0, 0.0, 0.412, 0.0, 0.0]"] ;
184 -> 185 ;
186 [label="gini = 0.0\nsamples = 18\nvalue = [0.0, 0.0, 7.172, 0.0, 0.0, 0.0]"] ;
184 -> 186 ;
187 [label="gini = -0.0\nsamples = 3\nvalue = [0.0, 14.872, 0.0, 0.0, 0.0, 0.0]"] ;
183 -> 187 ;
188 [label="fixed acidity <= 2.368\ngini = 0.554\nsamples = 329\nvalue = [0.0, 19.829, 93.634, 35.871, 3.899, 0.0]"] ;
182 -> 188 ;
189 [label="volatile acidity <= -0.78\ngini = 0.532\nsamples = 326\nvalue = [0.0, 14.872, 93.236, 35.459, 3.899, 0.0]"] ;
188 -> 189 ;
190 [label="residual sugar <= -0.142\ngini = 0.55\nsamples = 6\nvalue = [0.0, 4.957, 1.195, 0.412, 1.3, 0.0]"] ;
189 -> 190 ;
191 [label="chlorides <= -0.383\ngini = 0.611\nsamples = 5\nvalue = [0.0, 0.0, 1.195, 0.412, 1.3, 0.0]"] ;
190 -> 191 ;
192 [label="gini = 0.0\nsamples = 1\nvalue = [0.0, 0.0, 0.0, 0.0, 1.3, 0.0]"] ;
191 -> 192 ;
193 [label="free sulfur dioxide <= 0.302\ngini = 0.381\nsamples = 4\nvalue = [0.0, 0.0, 1.195, 0.412, 0.0, 0.0]"] ;
191 -> 193 ;
194 [label="gini = -0.0\nsamples = 3\nvalue = [0.0, 0.0, 1.195, 0.0, 0.0, 0.0]"] ;
193 -> 194 ;
195 [label="gini = 0.0\nsamples = 1\nvalue = [0.0, 0.0, 0.0, 0.412, 0.0, 0.0]"] ;
193 -> 195 ;
196 [label="gini = 0.0\nsamples = 1\nvalue = [0.0, 4.957, 0.0, 0.0, 0.0, 0.0]"] ;
190 -> 196 ;
197 [label="total sulfur dioxide <= 0.105\ngini = 0.497\nsamples = 320\nvalue = [0.0, 9.915, 92.04, 35.047, 2.6, 0.0]"] ;
189 -> 197 ;
198 [label="total sulfur dioxide <= -0.135\ngini = 0.623\nsamples = 150\nvalue = [0.0, 9.915, 35.86, 23.09, 2.6, 0.0]"] ;
197 -> 198 ;
199 [label="sulphates <= 0.839\ngini = 0.49\nsamples = 124\nvalue = [0.0, 0.0, 31.477, 18.142, 1.3, 0.0]"] ;
198 -> 199 ;
200 [label="volatile acidity <= 0.786\ngini = 0.466\nsamples = 113\nvalue = [0.0, 0.0, 30.68, 14.431, 1.3, 0.0]"] ;
199 -> 200 ;
201 [label="citric acid <= -0.436\ngini = 0.503\nsamples = 96\nvalue = [0.0, 0.0, 23.907, 14.431, 1.3, 0.0]"] ;
200 -> 201 ;
202 [label="chlorides <= -0.011\ngini = 0.551\nsamples = 55\nvalue = [0.0, 0.0, 10.758, 11.132, 1.3, 0.0]"] ;
201 -> 202 ;
203 [label="gini = 0.545\nsamples = 43\nvalue = [0.0, 0.0, 6.774, 10.308, 1.3, 0.0]"] ;
202 -> 203 ;
204 [label="gini = 0.284\nsamples = 12\nvalue = [0.0, 0.0, 3.984, 0.825, 0.0, 0.0]"] ;
202 -> 204 ;
205 [label="alcohol <= -1.002\ngini = 0.321\nsamples = 41\nvalue = [0.0, 0.0, 13.149, 3.299, 0.0, 0.0]"] ;
201 -> 205 ;
206 [label="gini = 0.5\nsamples = 14\nvalue = [0.0, 0.0, 2.789, 2.886, 0.0, 0.0]"] ;
205 -> 206 ;
207 [label="gini = 0.074\nsamples = 27\nvalue = [0.0, 0.0, 10.36, 0.412, 0.0, 0.0]"] ;
205 -> 207 ;
208 [label="sulphates <= -1.009\ngini = 0.0\nsamples = 17\nvalue = [0.0, 0.0, 6.774, 0.0, 0.0, 0.0]"] ;
200 -> 208 ;
209 [label="gini = 0.0\nsamples = 1\nvalue = [0.0, 0.0, 0.398, 0.0, 0.0, 0.0]"] ;
208 -> 209 ;
210 [label="gini = 0.0\nsamples = 16\nvalue = [0.0, 0.0, 6.375, 0.0, 0.0, 0.0]"] ;
208 -> 210 ;
211 [label="fixed acidity <= -1.052\ngini = 0.291\nsamples = 11\nvalue = [0.0, 0.0, 0.797, 3.711, 0.0, 0.0]"] ;
199 -> 211 ;
212 [label="gini = 0.0\nsamples = 1\nvalue = [0.0, 0.0, 0.398, 0.0, 0.0, 0.0]"] ;
211 -> 212 ;
213 [label="volatile acidity <= -0.385\ngini = 0.175\nsamples = 10\nvalue = [0.0, 0.0, 0.398, 3.711, 0.0, 0.0]"] ;
211 -> 213 ;
214 [label="gini = 0.0\nsamples = 1\nvalue = [0.0, 0.0, 0.398, 0.0, 0.0, 0.0]"] ;
213 -> 214 ;
215 [label="gini = 0.0\nsamples = 9\nvalue = [0.0, 0.0, 0.0, 3.711, 0.0, 0.0]"] ;
213 -> 215 ;
216 [label="sulphates <= -0.72\ngini = 0.66\nsamples = 26\nvalue = [0.0, 9.915, 4.383, 4.948, 1.3, 0.0]"] ;
198 -> 216 ;
217 [label="citric acid <= -0.179\ngini = 0.295\nsamples = 7\nvalue = [0.0, 9.915, 1.195, 0.825, 0.0, 0.0]"] ;
216 -> 217 ;
218 [label="chlorides <= -0.202\ngini = 0.483\nsamples = 5\nvalue = [0.0, 0.0, 1.195, 0.825, 0.0, 0.0]"] ;
217 -> 218 ;
219 [label="gini = 0.0\nsamples = 2\nvalue = [0.0, 0.0, 0.0, 0.825, 0.0, 0.0]"] ;
218 -> 219 ;
220 [label="gini = 0.0\nsamples = 3\nvalue = [0.0, 0.0, 1.195, 0.0, 0.0, 0.0]"] ;
218 -> 220 ;
221 [label="gini = 0.0\nsamples = 2\nvalue = [0.0, 9.915, 0.0, 0.0, 0.0, 0.0]"] ;
217 -> 221 ;
222 [label="free sulfur dioxide <= -0.042\ngini = 0.611\nsamples = 19\nvalue = [0.0, 0.0, 3.188, 4.123, 1.3, 0.0]"] ;
216 -> 222 ;
223 [label="alcohol <= -0.722\ngini = 0.523\nsamples = 12\nvalue = [0.0, 0.0, 0.797, 3.711, 1.3, 0.0]"] ;
222 -> 223 ;
224 [label="pH <= -1.225\ngini = 0.192\nsamples = 9\nvalue = [0.0, 0.0, 0.398, 3.299, 0.0, 0.0]"] ;
223 -> 224 ;
225 [label="gini = 0.0\nsamples = 1\nvalue = [0.0, 0.0, 0.398, 0.0, 0.0, 0.0]"] ;
224 -> 225 ;
226 [label="gini = 0.0\nsamples = 8\nvalue = [0.0, 0.0, 0.0, 3.299, 0.0, 0.0]"] ;
224 -> 226 ;
227 [label="density <= 0.823\ngini = 0.547\nsamples = 3\nvalue = [0.0, 0.0, 0.398, 0.412, 1.3, 0.0]"] ;
223 -> 227 ;
228 [label="gini = 0.5\nsamples = 2\nvalue = [0.0, 0.0, 0.398, 0.412, 0.0, 0.0]"] ;
227 -> 228 ;
229 [label="gini = 0.0\nsamples = 1\nvalue = [0.0, 0.0, 0.0, 0.0, 1.3, 0.0]"] ;
227 -> 229 ;
230 [label="alcohol <= -1.002\ngini = 0.251\nsamples = 7\nvalue = [0.0, 0.0, 2.391, 0.412, 0.0, 0.0]"] ;
222 -> 230 ;
231 [label="density <= 0.68\ngini = 0.5\nsamples = 2\nvalue = [0.0, 0.0, 0.398, 0.412, 0.0, 0.0]"] ;
230 -> 231 ;
232 [label="gini = 0.0\nsamples = 1\nvalue = [0.0, 0.0, 0.398, 0.0, 0.0, 0.0]"] ;
231 -> 232 ;
233 [label="gini = 0.0\nsamples = 1\nvalue = [0.0, 0.0, 0.0, 0.412, 0.0, 0.0]"] ;
231 -> 233 ;
234 [label="gini = -0.0\nsamples = 5\nvalue = [0.0, 0.0, 1.992, 0.0, 0.0, 0.0]"] ;
230 -> 234 ;
235 [label="total sulfur dioxide <= 1.572\ngini = 0.289\nsamples = 170\nvalue = [0.0, 0.0, 56.18, 11.957, 0.0, 0.0]"] ;
197 -> 235 ;
236 [label="chlorides <= 0.17\ngini = 0.37\nsamples = 113\nvalue = [0.0, 0.0, 34.266, 11.132, 0.0, 0.0]"] ;
235 -> 236 ;
237 [label="chlorides <= 0.089\ngini = 0.426\nsamples = 90\nvalue = [0.0, 0.0, 25.102, 11.132, 0.0, 0.0]"] ;
236 -> 237 ;
238 [label="total sulfur dioxide <= 0.943\ngini = 0.381\nsamples = 84\nvalue = [0.0, 0.0, 25.102, 8.659, 0.0, 0.0]"] ;
237 -> 238 ;
239 [label="volatile acidity <= 1.323\ngini = 0.213\nsamples = 51\nvalue = [0.0, 0.0, 17.93, 2.474, 0.0, 0.0]"] ;
238 -> 239 ;
240 [label="gini = 0.185\nsamples = 50\nvalue = [0.0, 0.0, 17.93, 2.062, 0.0, 0.0]"] ;
239 -> 240 ;
241 [label="gini = -0.0\nsamples = 1\nvalue = [0.0, 0.0, 0.0, 0.412, 0.0, 0.0]"] ;
239 -> 241 ;
242 [label="chlorides <= -0.092\ngini = 0.497\nsamples = 33\nvalue = [0.0, 0.0, 7.172, 6.185, 0.0, 0.0]"] ;
238 -> 242 ;
243 [label="gini = 0.492\nsamples = 27\nvalue = [0.0, 0.0, 4.781, 6.185, 0.0, 0.0]"] ;
242 -> 243 ;
244 [label="gini = 0.0\nsamples = 6\nvalue = [0.0, 0.0, 2.391, 0.0, 0.0, 0.0]"] ;
242 -> 244 ;
245 [label="fixed acidity <= -0.305\ngini = 0.0\nsamples = 6\nvalue = [0.0, 0.0, 0.0, 2.474, 0.0, 0.0]"] ;
237 -> 245 ;
246 [label="gini = 0.0\nsamples = 2\nvalue = [0.0, 0.0, 0.0, 0.825, 0.0, 0.0]"] ;
245 -> 246 ;
247 [label="gini = 0.0\nsamples = 4\nvalue = [0.0, 0.0, 0.0, 1.649, 0.0, 0.0]"] ;
245 -> 247 ;
248 [label="fixed acidity <= -0.822\ngini = 0.0\nsamples = 23\nvalue = [0.0, 0.0, 9.164, 0.0, 0.0, 0.0]"] ;
236 -> 248 ;
249 [label="gini = 0.0\nsamples = 1\nvalue = [0.0, 0.0, 0.398, 0.0, 0.0, 0.0]"] ;
248 -> 249 ;
250 [label="gini = 0.0\nsamples = 22\nvalue = [0.0, 0.0, 8.766, 0.0, 0.0, 0.0]"] ;
248 -> 250 ;
251 [label="chlorides <= -0.413\ngini = 0.07\nsamples = 57\nvalue = [0.0, 0.0, 21.914, 0.825, 0.0, 0.0]"] ;
235 -> 251 ;
252 [label="gini = 0.0\nsamples = 1\nvalue = [0.0, 0.0, 0.0, 0.412, 0.0, 0.0]"] ;
251 -> 252 ;
253 [label="density <= -0.346\ngini = 0.036\nsamples = 56\nvalue = [0.0, 0.0, 21.914, 0.412, 0.0, 0.0]"] ;
251 -> 253 ;
254 [label="total sulfur dioxide <= 1.692\ngini = 0.5\nsamples = 2\nvalue = [0.0, 0.0, 0.398, 0.412, 0.0, 0.0]"] ;
253 -> 254 ;
255 [label="gini = 0.0\nsamples = 1\nvalue = [0.0, 0.0, 0.398, 0.0, 0.0, 0.0]"] ;
254 -> 255 ;
256 [label="gini = 0.0\nsamples = 1\nvalue = [0.0, 0.0, 0.0, 0.412, 0.0, 0.0]"] ;
254 -> 256 ;
257 [label="gini = -0.0\nsamples = 54\nvalue = [0.0, 0.0, 21.516, 0.0, 0.0, 0.0]"] ;
253 -> 257 ;
258 [label="volatile acidity <= -0.583\ngini = 0.251\nsamples = 3\nvalue = [0.0, 4.957, 0.398, 0.412, 0.0, 0.0]"] ;
188 -> 258 ;
259 [label="density <= 2.129\ngini = 0.5\nsamples = 2\nvalue = [0.0, 0.0, 0.398, 0.412, 0.0, 0.0]"] ;
258 -> 259 ;
260 [label="gini = 0.0\nsamples = 1\nvalue = [0.0, 0.0, 0.398, 0.0, 0.0, 0.0]"] ;
259 -> 260 ;
261 [label="gini = 0.0\nsamples = 1\nvalue = [0.0, 0.0, 0.0, 0.412, 0.0, 0.0]"] ;
259 -> 261 ;
262 [label="gini = 0.0\nsamples = 1\nvalue = [0.0, 4.957, 0.0, 0.0, 0.0, 0.0]"] ;
258 -> 262 ;
263 [label="volatile acidity <= -0.103\ngini = 0.429\nsamples = 18\nvalue = [0.0, 14.872, 5.18, 0.825, 0.0, 0.0]"] ;
181 -> 263 ;
264 [label="gini = 0.0\nsamples = 7\nvalue = [0.0, 0.0, 2.789, 0.0, 0.0, 0.0]"] ;
263 -> 264 ;
265 [label="density <= -0.162\ngini = 0.304\nsamples = 11\nvalue = [0.0, 14.872, 2.391, 0.825, 0.0, 0.0]"] ;
263 -> 265 ;
266 [label="volatile acidity <= 0.504\ngini = 0.327\nsamples = 5\nvalue = [0.0, 0.0, 1.594, 0.412, 0.0, 0.0]"] ;
265 -> 266 ;
267 [label="gini = 0.0\nsamples = 1\nvalue = [0.0, 0.0, 0.0, 0.412, 0.0, 0.0]"] ;
266 -> 267 ;
268 [label="gini = -0.0\nsamples = 4\nvalue = [0.0, 0.0, 1.594, 0.0, 0.0, 0.0]"] ;
266 -> 268 ;
269 [label="volatile acidity <= 1.111\ngini = 0.142\nsamples = 6\nvalue = [0.0, 14.872, 0.797, 0.412, 0.0, 0.0]"] ;
265 -> 269 ;
270 [label="free sulfur dioxide <= -0.879\ngini = 0.097\nsamples = 5\nvalue = [0.0, 14.872, 0.797, 0.0, 0.0, 0.0]"] ;
269 -> 270 ;
271 [label="gini = 0.0\nsamples = 1\nvalue = [0.0, 0.0, 0.398, 0.0, 0.0, 0.0]"] ;
270 -> 271 ;
272 [label="density <= 0.128\ngini = 0.051\nsamples = 4\nvalue = [0.0, 14.872, 0.398, 0.0, 0.0, 0.0]"] ;
270 -> 272 ;
273 [label="pH <= -1.096\ngini = 0.138\nsamples = 2\nvalue = [0.0, 4.957, 0.398, 0.0, 0.0, 0.0]"] ;
272 -> 273 ;
274 [label="gini = 0.0\nsamples = 1\nvalue = [0.0, 0.0, 0.398, 0.0, 0.0, 0.0]"] ;
273 -> 274 ;
275 [label="gini = 0.0\nsamples = 1\nvalue = [0.0, 4.957, 0.0, 0.0, 0.0, 0.0]"] ;
273 -> 275 ;
276 [label="gini = -0.0\nsamples = 2\nvalue = [0.0, 9.915, 0.0, 0.0, 0.0, 0.0]"] ;
272 -> 276 ;
277 [label="gini = 0.0\nsamples = 1\nvalue = [0.0, 0.0, 0.0, 0.412, 0.0, 0.0]"] ;
269 -> 277 ;
278 [label="chlorides <= 0.692\ngini = 0.716\nsamples = 318\nvalue = [0.0, 24.787, 51.001, 65.97, 32.495, 0.0]"] ;
180 -> 278 ;
279 [label="total sulfur dioxide <= 0.868\ngini = 0.697\nsamples = 309\nvalue = [0.0, 14.872, 49.805, 64.321, 32.495, 0.0]"] ;
278 -> 279 ;
280 [label="residual sugar <= 1.854\ngini = 0.697\nsamples = 274\nvalue = [0.0, 14.872, 37.852, 62.26, 32.495, 0.0]"] ;
279 -> 280 ;
281 [label="volatile acidity <= 0.56\ngini = 0.686\nsamples = 261\nvalue = [0.0, 14.872, 37.454, 60.198, 23.396, 0.0]"] ;
280 -> 281 ;
282 [label="pH <= -1.84\ngini = 0.611\nsamples = 189\nvalue = [0.0, 0.0, 24.703, 46.592, 18.197, 0.0]"] ;
281 -> 282 ;
283 [label="residual sugar <= -0.545\ngini = 0.282\nsamples = 5\nvalue = [0.0, 0.0, 0.797, 0.0, 3.899, 0.0]"] ;
282 -> 283 ;
284 [label="gini = -0.0\nsamples = 3\nvalue = [0.0, 0.0, 0.0, 0.0, 3.899, 0.0]"] ;
283 -> 284 ;
285 [label="fixed acidity <= 1.649\ngini = 0.0\nsamples = 2\nvalue = [0.0, 0.0, 0.797, 0.0, 0.0, 0.0]"] ;
283 -> 285 ;
286 [label="gini = 0.0\nsamples = 1\nvalue = [0.0, 0.0, 0.398, 0.0, 0.0, 0.0]"] ;
285 -> 286 ;
287 [label="gini = 0.0\nsamples = 1\nvalue = [0.0, 0.0, 0.398, 0.0, 0.0, 0.0]"] ;
285 -> 287 ;
288 [label="free sulfur dioxide <= -0.141\ngini = 0.59\nsamples = 184\nvalue = [0.0, 0.0, 23.907, 46.592, 14.298, 0.0]"] ;
282 -> 288 ;
289 [label="sulphates <= 1.012\ngini = 0.657\nsamples = 78\nvalue = [0.0, 0.0, 11.555, 16.493, 11.698, 0.0]"] ;
288 -> 289 ;
290 [label="free sulfur dioxide <= -0.633\ngini = 0.636\nsamples = 74\nvalue = [0.0, 0.0, 11.156, 16.493, 7.799, 0.0]"] ;
289 -> 290 ;
291 [label="sulphates <= -0.662\ngini = 0.499\nsamples = 37\nvalue = [0.0, 0.0, 7.172, 7.834, 0.0, 0.0]"] ;
290 -> 291 ;
292 [label="gini = 0.0\nsamples = 6\nvalue = [0.0, 0.0, 2.391, 0.0, 0.0, 0.0]"] ;
291 -> 292 ;
293 [label="chlorides <= 0.079\ngini = 0.471\nsamples = 31\nvalue = [0.0, 0.0, 4.781, 7.834, 0.0, 0.0]"] ;
291 -> 293 ;
294 [label="gini = 0.397\nsamples = 25\nvalue = [0.0, 0.0, 2.789, 7.422, 0.0, 0.0]"] ;
293 -> 294 ;
295 [label="gini = 0.284\nsamples = 6\nvalue = [0.0, 0.0, 1.992, 0.412, 0.0, 0.0]"] ;
293 -> 295 ;
296 [label="total sulfur dioxide <= -0.494\ngini = 0.637\nsamples = 37\nvalue = [0.0, 0.0, 3.984, 8.659, 7.799, 0.0]"] ;
290 -> 296 ;
297 [label="alcohol <= 0.025\ngini = 0.525\nsamples = 14\nvalue = [0.0, 0.0, 1.594, 2.062, 6.499, 0.0]"] ;
296 -> 297 ;
298 [label="gini = 0.645\nsamples = 9\nvalue = [0.0, 0.0, 1.195, 2.062, 1.3, 0.0]"] ;
297 -> 298 ;
299 [label="gini = 0.132\nsamples = 5\nvalue = [0.0, 0.0, 0.398, 0.0, 5.199, 0.0]"] ;
297 -> 299 ;
300 [label="fixed acidity <= 0.845\ngini = 0.519\nsamples = 23\nvalue = [0.0, 0.0, 2.391, 6.597, 1.3, 0.0]"] ;
296 -> 300 ;
301 [label="gini = 0.284\nsamples = 17\nvalue = [0.0, 0.0, 1.195, 5.772, 0.0, 0.0]"] ;
300 -> 301 ;
302 [label="gini = 0.655\nsamples = 6\nvalue = [0.0, 0.0, 1.195, 0.825, 1.3, 0.0]"] ;
300 -> 302 ;
303 [label="fixed acidity <= 2.224\ngini = 0.168\nsamples = 4\nvalue = [0.0, 0.0, 0.398, 0.0, 3.899, 0.0]"] ;
289 -> 303 ;
304 [label="gini = -0.0\nsamples = 3\nvalue = [0.0, 0.0, 0.0, 0.0, 3.899, 0.0]"] ;
303 -> 304 ;
305 [label="gini = -0.0\nsamples = 1\nvalue = [0.0, 0.0, 0.398, 0.0, 0.0, 0.0]"] ;
303 -> 305 ;
306 [label="sulphates <= -0.373\ngini = 0.475\nsamples = 106\nvalue = [0.0, 0.0, 12.352, 30.099, 2.6, 0.0]"] ;
288 -> 306 ;
307 [label="total sulfur dioxide <= -0.404\ngini = 0.5\nsamples = 31\nvalue = [0.0, 0.0, 6.375, 6.185, 0.0, 0.0]"] ;
306 -> 307 ;
308 [label="gini = 0.0\nsamples = 4\nvalue = [0.0, 0.0, 0.0, 1.649, 0.0, 0.0]"] ;
307 -> 308 ;
309 [label="total sulfur dioxide <= 0.284\ngini = 0.486\nsamples = 27\nvalue = [0.0, 0.0, 6.375, 4.535, 0.0, 0.0]"] ;
307 -> 309 ;
310 [label="residual sugar <= 0.227\ngini = 0.352\nsamples = 18\nvalue = [0.0, 0.0, 5.578, 1.649, 0.0, 0.0]"] ;
309 -> 310 ;
311 [label="gini = 0.237\nsamples = 15\nvalue = [0.0, 0.0, 5.18, 0.825, 0.0, 0.0]"] ;
310 -> 311 ;
312 [label="gini = 0.439\nsamples = 3\nvalue = [0.0, 0.0, 0.398, 0.825, 0.0, 0.0]"] ;
310 -> 312 ;
313 [label="citric acid <= -0.102\ngini = 0.339\nsamples = 9\nvalue = [0.0, 0.0, 0.797, 2.886, 0.0, 0.0]"] ;
309 -> 313 ;
314 [label="gini = 0.0\nsamples = 7\nvalue = [0.0, 0.0, 0.0, 2.886, 0.0, 0.0]"] ;
313 -> 314 ;
315 [label="gini = -0.0\nsamples = 2\nvalue = [0.0, 0.0, 0.797, 0.0, 0.0, 0.0]"] ;
313 -> 315 ;
316 [label="density <= -0.533\ngini = 0.418\nsamples = 75\nvalue = [0.0, 0.0, 5.977, 23.914, 2.6, 0.0]"] ;
306 -> 316 ;
317 [label="fixed acidity <= -0.592\ngini = 0.059\nsamples = 32\nvalue = [0.0, 0.0, 0.398, 12.782, 0.0, 0.0]"] ;
316 -> 317 ;
318 [label="gini = 0.0\nsamples = 28\nvalue = [0.0, 0.0, 0.0, 11.545, 0.0, 0.0]"] ;
317 -> 318 ;
319 [label="density <= -0.636\ngini = 0.369\nsamples = 4\nvalue = [0.0, 0.0, 0.398, 1.237, 0.0, 0.0]"] ;
317 -> 319 ;
320 [label="gini = 0.0\nsamples = 3\nvalue = [0.0, 0.0, 0.0, 1.237, 0.0, 0.0]"] ;
319 -> 320 ;
321 [label="gini = -0.0\nsamples = 1\nvalue = [0.0, 0.0, 0.398, 0.0, 0.0, 0.0]"] ;
319 -> 321 ;
322 [label="pH <= 1.103\ngini = 0.566\nsamples = 43\nvalue = [0.0, 0.0, 5.578, 11.132, 2.6, 0.0]"] ;
316 -> 322 ;
323 [label="chlorides <= -0.494\ngini = 0.533\nsamples = 39\nvalue = [0.0, 0.0, 3.984, 11.132, 2.6, 0.0]"] ;
322 -> 323 ;
324 [label="gini = 0.366\nsamples = 2\nvalue = [0.0, 0.0, 0.0, 0.412, 1.3, 0.0]"] ;
323 -> 324 ;
325 [label="gini = 0.483\nsamples = 37\nvalue = [0.0, 0.0, 3.984, 10.72, 1.3, 0.0]"] ;
323 -> 325 ;
326 [label="gini = -0.0\nsamples = 4\nvalue = [0.0, 0.0, 1.594, 0.0, 0.0, 0.0]"] ;
322 -> 326 ;
327 [label="citric acid <= 0.361\ngini = 0.724\nsamples = 72\nvalue = [0.0, 14.872, 12.75, 13.606, 5.199, 0.0]"] ;
281 -> 327 ;
328 [label="residual sugar <= 0.797\ngini = 0.693\nsamples = 64\nvalue = [0.0, 4.957, 11.156, 13.194, 3.899, 0.0]"] ;
327 -> 328 ;
329 [label="pH <= 1.718\ngini = 0.607\nsamples = 63\nvalue = [0.0, 0.0, 11.156, 13.194, 3.899, 0.0]"] ;
328 -> 329 ;
330 [label="sulphates <= -0.662\ngini = 0.546\nsamples = 57\nvalue = [0.0, 0.0, 10.36, 12.369, 1.3, 0.0]"] ;
329 -> 330 ;
331 [label="citric acid <= -1.362\ngini = 0.476\nsamples = 11\nvalue = [0.0, 0.0, 3.586, 0.412, 1.3, 0.0]"] ;
330 -> 331 ;
332 [label="free sulfur dioxide <= -0.436\ngini = 0.366\nsamples = 2\nvalue = [0.0, 0.0, 0.0, 0.412, 1.3, 0.0]"] ;
331 -> 332 ;
333 [label="gini = 0.0\nsamples = 1\nvalue = [0.0, 0.0, 0.0, 0.412, 0.0, 0.0]"] ;
332 -> 333 ;
334 [label="gini = 0.0\nsamples = 1\nvalue = [0.0, 0.0, 0.0, 0.0, 1.3, 0.0]"] ;
332 -> 334 ;
335 [label="free sulfur dioxide <= -0.485\ngini = 0.0\nsamples = 9\nvalue = [0.0, 0.0, 3.586, 0.0, 0.0, 0.0]"] ;
331 -> 335 ;
336 [label="gini = 0.0\nsamples = 1\nvalue = [0.0, 0.0, 0.398, 0.0, 0.0, 0.0]"] ;
335 -> 336 ;
337 [label="gini = 0.0\nsamples = 8\nvalue = [0.0, 0.0, 3.188, 0.0, 0.0, 0.0]"] ;
335 -> 337 ;
338 [label="chlorides <= -0.051\ngini = 0.462\nsamples = 46\nvalue = [0.0, 0.0, 6.774, 11.957, 0.0, 0.0]"] ;
330 -> 338 ;
339 [label="fixed acidity <= -1.224\ngini = 0.39\nsamples = 33\nvalue = [0.0, 0.0, 3.586, 9.896, 0.0, 0.0]"] ;
338 -> 339 ;
340 [label="gini = 0.0\nsamples = 2\nvalue = [0.0, 0.0, 0.797, 0.0, 0.0, 0.0]"] ;
339 -> 340 ;
341 [label="gini = 0.343\nsamples = 31\nvalue = [0.0, 0.0, 2.789, 9.896, 0.0, 0.0]"] ;
339 -> 341 ;
342 [label="sulphates <= -0.402\ngini = 0.477\nsamples = 13\nvalue = [0.0, 0.0, 3.188, 2.062, 0.0, 0.0]"] ;
338 -> 342 ;
343 [label="gini = 0.439\nsamples = 6\nvalue = [0.0, 0.0, 0.797, 1.649, 0.0, 0.0]"] ;
342 -> 343 ;
344 [label="gini = 0.251\nsamples = 7\nvalue = [0.0, 0.0, 2.391, 0.412, 0.0, 0.0]"] ;
342 -> 344 ;
345 [label="alcohol <= 0.072\ngini = 0.547\nsamples = 6\nvalue = [0.0, 0.0, 0.797, 0.825, 2.6, 0.0]"] ;
329 -> 345 ;
346 [label="density <= 0.628\ngini = 0.5\nsamples = 4\nvalue = [0.0, 0.0, 0.797, 0.825, 0.0, 0.0]"] ;
345 -> 346 ;
347 [label="gini = 0.0\nsamples = 2\nvalue = [0.0, 0.0, 0.797, 0.0, 0.0, 0.0]"] ;
346 -> 347 ;
348 [label="gini = 0.0\nsamples = 2\nvalue = [0.0, 0.0, 0.0, 0.825, 0.0, 0.0]"] ;
346 -> 348 ;
349 [label="gini = 0.0\nsamples = 2\nvalue = [0.0, 0.0, 0.0, 0.0, 2.6, 0.0]"] ;
345 -> 349 ;
350 [label="gini = -0.0\nsamples = 1\nvalue = [0.0, 4.957, 0.0, 0.0, 0.0, 0.0]"] ;
328 -> 350 ;
351 [label="volatile acidity <= 0.659\ngini = 0.412\nsamples = 8\nvalue = [0.0, 9.915, 1.594, 0.412, 1.3, 0.0]"] ;
327 -> 351 ;
352 [label="gini = 0.0\nsamples = 2\nvalue = [0.0, 9.915, 0.0, 0.0, 0.0, 0.0]"] ;
351 -> 352 ;
353 [label="total sulfur dioxide <= -0.3\ngini = 0.597\nsamples = 6\nvalue = [0.0, 0.0, 1.594, 0.412, 1.3, 0.0]"] ;
351 -> 353 ;
354 [label="gini = -0.0\nsamples = 4\nvalue = [0.0, 0.0, 1.594, 0.0, 0.0, 0.0]"] ;
353 -> 354 ;
355 [label="fixed acidity <= 2.598\ngini = 0.366\nsamples = 2\nvalue = [0.0, 0.0, 0.0, 0.412, 1.3, 0.0]"] ;
353 -> 355 ;
356 [label="gini = 0.0\nsamples = 1\nvalue = [0.0, 0.0, 0.0, 0.412, 0.0, 0.0]"] ;
355 -> 356 ;
357 [label="gini = 0.0\nsamples = 1\nvalue = [0.0, 0.0, 0.0, 0.0, 1.3, 0.0]"] ;
355 -> 357 ;
358 [label="total sulfur dioxide <= -0.884\ngini = 0.347\nsamples = 13\nvalue = [0.0, 0.0, 0.398, 2.062, 9.099, 0.0]"] ;
280 -> 358 ;
359 [label="gini = 0.0\nsamples = 3\nvalue = [0.0, 0.0, 0.0, 1.237, 0.0, 0.0]"] ;
358 -> 359 ;
360 [label="free sulfur dioxide <= 0.597\ngini = 0.215\nsamples = 10\nvalue = [0.0, 0.0, 0.398, 0.825, 9.099, 0.0]"] ;
358 -> 360 ;
361 [label="fixed acidity <= -0.937\ngini = 0.08\nsamples = 8\nvalue = [0.0, 0.0, 0.398, 0.0, 9.099, 0.0]"] ;
360 -> 361 ;
362 [label="gini = 0.0\nsamples = 1\nvalue = [0.0, 0.0, 0.398, 0.0, 0.0, 0.0]"] ;
361 -> 362 ;
363 [label="volatile acidity <= -0.724\ngini = 0.0\nsamples = 7\nvalue = [0.0, 0.0, 0.0, 0.0, 9.099, 0.0]"] ;
361 -> 363 ;
364 [label="gini = 0.0\nsamples = 1\nvalue = [0.0, 0.0, 0.0, 0.0, 1.3, 0.0]"] ;
363 -> 364 ;
365 [label="gini = 0.0\nsamples = 6\nvalue = [0.0, 0.0, 0.0, 0.0, 7.799, 0.0]"] ;
363 -> 365 ;
366 [label="gini = 0.0\nsamples = 2\nvalue = [0.0, 0.0, 0.0, 0.825, 0.0, 0.0]"] ;
360 -> 366 ;
367 [label="sulphates <= 2.976\ngini = 0.251\nsamples = 35\nvalue = [0.0, 0.0, 11.953, 2.062, 0.0, 0.0]"] ;
279 -> 367 ;
368 [label="chlorides <= -0.664\ngini = 0.121\nsamples = 32\nvalue = [0.0, 0.0, 11.953, 0.825, 0.0, 0.0]"] ;
367 -> 368 ;
369 [label="gini = 0.0\nsamples = 1\nvalue = [0.0, 0.0, 0.0, 0.412, 0.0, 0.0]"] ;
368 -> 369 ;
370 [label="alcohol <= 0.585\ngini = 0.064\nsamples = 31\nvalue = [0.0, 0.0, 11.953, 0.412, 0.0, 0.0]"] ;
368 -> 370 ;
371 [label="gini = 0.0\nsamples = 30\nvalue = [0.0, 0.0, 11.953, 0.0, 0.0, 0.0]"] ;
370 -> 371 ;
372 [label="gini = 0.0\nsamples = 1\nvalue = [0.0, 0.0, 0.0, 0.412, 0.0, 0.0]"] ;
370 -> 372 ;
373 [label="gini = 0.0\nsamples = 3\nvalue = [0.0, 0.0, 0.0, 1.237, 0.0, 0.0]"] ;
367 -> 373 ;
374 [label="chlorides <= 1.325\ngini = 0.371\nsamples = 9\nvalue = [0.0, 9.915, 1.195, 1.649, 0.0, 0.0]"] ;
278 -> 374 ;
375 [label="citric acid <= -1.182\ngini = 0.138\nsamples = 4\nvalue = [0.0, 9.915, 0.797, 0.0, 0.0, 0.0]"] ;
374 -> 375 ;
376 [label="gini = 0.0\nsamples = 2\nvalue = [0.0, 0.0, 0.797, 0.0, 0.0, 0.0]"] ;
375 -> 376 ;
377 [label="gini = -0.0\nsamples = 2\nvalue = [0.0, 9.915, 0.0, 0.0, 0.0, 0.0]"] ;
375 -> 377 ;
378 [label="pH <= 1.298\ngini = 0.313\nsamples = 5\nvalue = [0.0, 0.0, 0.398, 1.649, 0.0, 0.0]"] ;
374 -> 378 ;
379 [label="gini = 0.0\nsamples = 4\nvalue = [0.0, 0.0, 0.0, 1.649, 0.0, 0.0]"] ;
378 -> 379 ;
380 [label="gini = -0.0\nsamples = 1\nvalue = [0.0, 0.0, 0.398, 0.0, 0.0, 0.0]"] ;
378 -> 380 ;
381 [label="sulphates <= -0.604\ngini = 0.474\nsamples = 65\nvalue = [159.875, 54.531, 13.945, 5.36, 0.0, 0.0]"] ;
1 -> 381 ;
382 [label="citric acid <= -1.105\ngini = 0.31\nsamples = 37\nvalue = [159.875, 24.787, 8.766, 1.649, 0.0, 0.0]"] ;
381 -> 382 ;
383 [label="alcohol <= -0.722\ngini = 0.193\nsamples = 19\nvalue = [159.875, 14.872, 3.188, 0.825, 0.0, 0.0]"] ;
382 -> 383 ;
384 [label="residual sugar <= -0.411\ngini = 0.192\nsamples = 5\nvalue = [0.0, 9.915, 1.195, 0.0, 0.0, 0.0]"] ;
383 -> 384 ;
385 [label="gini = 0.0\nsamples = 2\nvalue = [0.0, 9.915, 0.0, 0.0, 0.0, 0.0]"] ;
384 -> 385 ;
386 [label="gini = -0.0\nsamples = 3\nvalue = [0.0, 0.0, 1.195, 0.0, 0.0, 0.0]"] ;
384 -> 386 ;
387 [label="fixed acidity <= -0.966\ngini = 0.09\nsamples = 14\nvalue = [159.875, 4.957, 1.992, 0.825, 0.0, 0.0]"] ;
383 -> 387 ;
388 [label="volatile acidity <= 2.028\ngini = 0.251\nsamples = 3\nvalue = [0.0, 4.957, 0.398, 0.412, 0.0, 0.0]"] ;
387 -> 388 ;
389 [label="gini = 0.0\nsamples = 1\nvalue = [0.0, 4.957, 0.0, 0.0, 0.0, 0.0]"] ;
388 -> 389 ;
390 [label="free sulfur dioxide <= -0.534\ngini = 0.5\nsamples = 2\nvalue = [0.0, 0.0, 0.398, 0.412, 0.0, 0.0]"] ;
388 -> 390 ;
391 [label="gini = 0.0\nsamples = 1\nvalue = [0.0, 0.0, 0.398, 0.0, 0.0, 0.0]"] ;
390 -> 391 ;
392 [label="gini = 0.0\nsamples = 1\nvalue = [0.0, 0.0, 0.0, 0.412, 0.0, 0.0]"] ;
390 -> 392 ;
393 [label="pH <= -0.126\ngini = 0.025\nsamples = 11\nvalue = [159.875, 0.0, 1.594, 0.412, 0.0, 0.0]"] ;
387 -> 393 ;
394 [label="fixed acidity <= -0.19\ngini = 0.449\nsamples = 3\nvalue = [0.0, 0.0, 0.797, 0.412, 0.0, 0.0]"] ;
393 -> 394 ;
395 [label="gini = 0.0\nsamples = 1\nvalue = [0.0, 0.0, 0.0, 0.412, 0.0, 0.0]"] ;
394 -> 395 ;
396 [label="gini = 0.0\nsamples = 2\nvalue = [0.0, 0.0, 0.797, 0.0, 0.0, 0.0]"] ;
394 -> 396 ;
397 [label="sulphates <= -1.009\ngini = 0.01\nsamples = 8\nvalue = [159.875, 0.0, 0.797, 0.0, 0.0, 0.0]"] ;
393 -> 397 ;
398 [label="chlorides <= 0.632\ngini = 0.056\nsamples = 3\nvalue = [26.646, 0.0, 0.797, 0.0, 0.0, 0.0]"] ;
397 -> 398 ;
399 [label="gini = -0.0\nsamples = 2\nvalue = [0.0, 0.0, 0.797, 0.0, 0.0, 0.0]"] ;
398 -> 399 ;
400 [label="gini = 0.0\nsamples = 1\nvalue = [26.646, 0.0, 0.0, 0.0, 0.0, 0.0]"] ;
398 -> 400 ;
401 [label="pH <= 0.036\ngini = 0.0\nsamples = 5\nvalue = [133.229, 0.0, 0.0, 0.0, 0.0, 0.0]"] ;
397 -> 401 ;
402 [label="gini = 0.0\nsamples = 1\nvalue = [26.646, 0.0, 0.0, 0.0, 0.0, 0.0]"] ;
401 -> 402 ;
403 [label="gini = 0.0\nsamples = 4\nvalue = [106.583, 0.0, 0.0, 0.0, 0.0, 0.0]"] ;
401 -> 403 ;
404 [label="total sulfur dioxide <= -0.689\ngini = 0.511\nsamples = 18\nvalue = [0.0, 9.915, 5.578, 0.825, 0.0, 0.0]"] ;
382 -> 404 ;
405 [label="alcohol <= -0.722\ngini = 0.074\nsamples = 3\nvalue = [0.0, 9.915, 0.398, 0.0, 0.0, 0.0]"] ;
404 -> 405 ;
406 [label="gini = 0.0\nsamples = 1\nvalue = [0.0, 0.0, 0.398, 0.0, 0.0, 0.0]"] ;
405 -> 406 ;
407 [label="gini = 0.0\nsamples = 2\nvalue = [0.0, 9.915, 0.0, 0.0, 0.0, 0.0]"] ;
405 -> 407 ;
408 [label="citric acid <= -0.822\ngini = 0.237\nsamples = 15\nvalue = [0.0, 0.0, 5.18, 0.825, 0.0, 0.0]"] ;
404 -> 408 ;
409 [label="chlorides <= -0.373\ngini = 0.439\nsamples = 3\nvalue = [0.0, 0.0, 0.398, 0.825, 0.0, 0.0]"] ;
408 -> 409 ;
410 [label="gini = 0.0\nsamples = 2\nvalue = [0.0, 0.0, 0.0, 0.825, 0.0, 0.0]"] ;
409 -> 410 ;
411 [label="gini = -0.0\nsamples = 1\nvalue = [0.0, 0.0, 0.398, 0.0, 0.0, 0.0]"] ;
409 -> 411 ;
412 [label="total sulfur dioxide <= -0.464\ngini = 0.0\nsamples = 12\nvalue = [0.0, 0.0, 4.781, 0.0, 0.0, 0.0]"] ;
408 -> 412 ;
413 [label="gini = 0.0\nsamples = 1\nvalue = [0.0, 0.0, 0.398, 0.0, 0.0, 0.0]"] ;
412 -> 413 ;
414 [label="gini = 0.0\nsamples = 11\nvalue = [0.0, 0.0, 4.383, 0.0, 0.0, 0.0]"] ;
412 -> 414 ;
415 [label="citric acid <= -0.796\ngini = 0.38\nsamples = 28\nvalue = [0.0, 29.744, 5.18, 3.711, 0.0, 0.0]"] ;
381 -> 415 ;
416 [label="fixed acidity <= -0.966\ngini = 0.235\nsamples = 17\nvalue = [0.0, 29.744, 2.391, 2.062, 0.0, 0.0]"] ;
415 -> 416 ;
417 [label="density <= -0.233\ngini = 0.369\nsamples = 4\nvalue = [0.0, 0.0, 0.398, 1.237, 0.0, 0.0]"] ;
416 -> 417 ;
418 [label="pH <= 1.33\ngini = 0.0\nsamples = 3\nvalue = [0.0, 0.0, 0.0, 1.237, 0.0, 0.0]"] ;
417 -> 418 ;
419 [label="gini = 0.0\nsamples = 1\nvalue = [0.0, 0.0, 0.0, 0.412, 0.0, 0.0]"] ;
418 -> 419 ;
420 [label="gini = 0.0\nsamples = 2\nvalue = [0.0, 0.0, 0.0, 0.825, 0.0, 0.0]"] ;
418 -> 420 ;
421 [label="gini = -0.0\nsamples = 1\nvalue = [0.0, 0.0, 0.398, 0.0, 0.0, 0.0]"] ;
417 -> 421 ;
422 [label="free sulfur dioxide <= 1.138\ngini = 0.161\nsamples = 13\nvalue = [0.0, 29.744, 1.992, 0.825, 0.0, 0.0]"] ;
416 -> 422 ;
423 [label="fixed acidity <= 0.069\ngini = 0.098\nsamples = 10\nvalue = [0.0, 29.744, 1.195, 0.412, 0.0, 0.0]"] ;
422 -> 423 ;
424 [label="chlorides <= 0.18\ngini = 0.074\nsamples = 9\nvalue = [0.0, 29.744, 1.195, 0.0, 0.0, 0.0]"] ;
423 -> 424 ;
425 [label="sulphates <= -0.547\ngini = 0.051\nsamples = 8\nvalue = [0.0, 29.744, 0.797, 0.0, 0.0, 0.0]"] ;
424 -> 425 ;
426 [label="gini = 0.0\nsamples = 1\nvalue = [0.0, 0.0, 0.398, 0.0, 0.0, 0.0]"] ;
425 -> 426 ;
427 [label="citric acid <= -1.387\ngini = 0.026\nsamples = 7\nvalue = [0.0, 29.744, 0.398, 0.0, 0.0, 0.0]"] ;
425 -> 427 ;
428 [label="total sulfur dioxide <= -0.015\ngini = 0.138\nsamples = 2\nvalue = [0.0, 4.957, 0.398, 0.0, 0.0, 0.0]"] ;
427 -> 428 ;
429 [label="gini = 0.0\nsamples = 1\nvalue = [0.0, 0.0, 0.398, 0.0, 0.0, 0.0]"] ;
428 -> 429 ;
430 [label="gini = 0.0\nsamples = 1\nvalue = [0.0, 4.957, 0.0, 0.0, 0.0, 0.0]"] ;
428 -> 430 ;
431 [label="gini = -0.0\nsamples = 5\nvalue = [0.0, 24.787, 0.0, 0.0, 0.0, 0.0]"] ;
427 -> 431 ;
432 [label="gini = -0.0\nsamples = 1\nvalue = [0.0, 0.0, 0.398, 0.0, 0.0, 0.0]"] ;
424 -> 432 ;
433 [label="gini = -0.0\nsamples = 1\nvalue = [0.0, 0.0, 0.0, 0.412, 0.0, 0.0]"] ;
423 -> 433 ;
434 [label="chlorides <= -0.423\ngini = 0.449\nsamples = 3\nvalue = [0.0, 0.0, 0.797, 0.412, 0.0, 0.0]"] ;
422 -> 434 ;
435 [label="gini = 0.0\nsamples = 1\nvalue = [0.0, 0.0, 0.0, 0.412, 0.0, 0.0]"] ;
434 -> 435 ;
436 [label="gini = 0.0\nsamples = 2\nvalue = [0.0, 0.0, 0.797, 0.0, 0.0, 0.0]"] ;
434 -> 436 ;
437 [label="volatile acidity <= 1.845\ngini = 0.467\nsamples = 11\nvalue = [0.0, 0.0, 2.789, 1.649, 0.0, 0.0]"] ;
415 -> 437 ;
438 [label="chlorides <= 0.009\ngini = 0.313\nsamples = 5\nvalue = [0.0, 0.0, 0.398, 1.649, 0.0, 0.0]"] ;
437 -> 438 ;
439 [label="gini = 0.0\nsamples = 4\nvalue = [0.0, 0.0, 0.0, 1.649, 0.0, 0.0]"] ;
438 -> 439 ;
440 [label="gini = -0.0\nsamples = 1\nvalue = [0.0, 0.0, 0.398, 0.0, 0.0, 0.0]"] ;
438 -> 440 ;
441 [label="sulphates <= -0.373\ngini = 0.0\nsamples = 6\nvalue = [0.0, 0.0, 2.391, 0.0, 0.0, 0.0]"] ;
437 -> 441 ;
442 [label="gini = 0.0\nsamples = 1\nvalue = [0.0, 0.0, 0.398, 0.0, 0.0, 0.0]"] ;
441 -> 442 ;
443 [label="gini = 0.0\nsamples = 5\nvalue = [0.0, 0.0, 1.992, 0.0, 0.0, 0.0]"] ;
441 -> 443 ;
444 [label="sulphates <= -0.2\ngini = 0.673\nsamples = 278\nvalue = [0.0, 24.787, 10.36, 58.136, 124.78, 177.639]"] ;
0 -> 444 [labeldistance=2.5, labelangle=-45, headlabel="False"] ;
445 [label="pH <= -0.287\ngini = 0.701\nsamples = 118\nvalue = [0.0, 19.829, 7.172, 29.274, 32.495, 0.0]"] ;
444 -> 445 ;
446 [label="chlorides <= 0.451\ngini = 0.427\nsamples = 38\nvalue = [0.0, 0.0, 1.594, 7.009, 22.097, 0.0]"] ;
445 -> 446 ;
447 [label="volatile acidity <= -1.627\ngini = 0.384\nsamples = 34\nvalue = [0.0, 0.0, 1.594, 5.36, 22.097, 0.0]"] ;
446 -> 447 ;
448 [label="gini = 0.0\nsamples = 4\nvalue = [0.0, 0.0, 0.0, 1.649, 0.0, 0.0]"] ;
447 -> 448 ;
449 [label="volatile acidity <= 0.095\ngini = 0.328\nsamples = 30\nvalue = [0.0, 0.0, 1.594, 3.711, 22.097, 0.0]"] ;
447 -> 449 ;
450 [label="fixed acidity <= -0.966\ngini = 0.269\nsamples = 27\nvalue = [0.0, 0.0, 0.398, 3.711, 22.097, 0.0]"] ;
449 -> 450 ;
451 [label="gini = 0.0\nsamples = 2\nvalue = [0.0, 0.0, 0.0, 0.825, 0.0, 0.0]"] ;
450 -> 451 ;
452 [label="density <= -1.394\ngini = 0.229\nsamples = 25\nvalue = [0.0, 0.0, 0.398, 2.886, 22.097, 0.0]"] ;
450 -> 452 ;
453 [label="gini = 0.0\nsamples = 9\nvalue = [0.0, 0.0, 0.0, 0.0, 11.698, 0.0]"] ;
452 -> 453 ;
454 [label="free sulfur dioxide <= -0.387\ngini = 0.377\nsamples = 16\nvalue = [0.0, 0.0, 0.398, 2.886, 10.398, 0.0]"] ;
452 -> 454 ;
455 [label="sulphates <= -1.066\ngini = 0.242\nsamples = 12\nvalue = [0.0, 0.0, 0.398, 1.237, 10.398, 0.0]"] ;
454 -> 455 ;
456 [label="gini = 0.0\nsamples = 1\nvalue = [0.0, 0.0, 0.398, 0.0, 0.0, 0.0]"] ;
455 -> 456 ;
457 [label="chlorides <= -0.534\ngini = 0.19\nsamples = 11\nvalue = [0.0, 0.0, 0.0, 1.237, 10.398, 0.0]"] ;
455 -> 457 ;
458 [label="gini = 0.0\nsamples = 1\nvalue = [0.0, 0.0, 0.0, 0.412, 0.0, 0.0]"] ;
457 -> 458 ;
459 [label="pH <= -1.193\ngini = 0.136\nsamples = 10\nvalue = [0.0, 0.0, 0.0, 0.825, 10.398, 0.0]"] ;
457 -> 459 ;
460 [label="gini = 0.0\nsamples = 1\nvalue = [0.0, 0.0, 0.0, 0.412, 0.0, 0.0]"] ;
459 -> 460 ;
461 [label="fixed acidity <= 0.988\ngini = 0.073\nsamples = 9\nvalue = [0.0, 0.0, 0.0, 0.412, 10.398, 0.0]"] ;
459 -> 461 ;
462 [label="citric acid <= 0.643\ngini = 0.0\nsamples = 7\nvalue = [0.0, 0.0, 0.0, 0.0, 9.099, 0.0]"] ;
461 -> 462 ;
463 [label="gini = 0.0\nsamples = 2\nvalue = [0.0, 0.0, 0.0, 0.0, 2.6, 0.0]"] ;
462 -> 463 ;
464 [label="gini = 0.0\nsamples = 5\nvalue = [0.0, 0.0, 0.0, 0.0, 6.499, 0.0]"] ;
462 -> 464 ;
465 [label="pH <= -0.74\ngini = 0.366\nsamples = 2\nvalue = [0.0, 0.0, 0.0, 0.412, 1.3, 0.0]"] ;
461 -> 465 ;
466 [label="gini = 0.0\nsamples = 1\nvalue = [0.0, 0.0, 0.0, 0.412, 0.0, 0.0]"] ;
465 -> 466 ;
467 [label="gini = 0.0\nsamples = 1\nvalue = [0.0, 0.0, 0.0, 0.0, 1.3, 0.0]"] ;
465 -> 467 ;
468 [label="gini = 0.0\nsamples = 4\nvalue = [0.0, 0.0, 0.0, 1.649, 0.0, 0.0]"] ;
454 -> 468 ;
469 [label="gini = -0.0\nsamples = 3\nvalue = [0.0, 0.0, 1.195, 0.0, 0.0, 0.0]"] ;
449 -> 469 ;
470 [label="gini = -0.0\nsamples = 4\nvalue = [0.0, 0.0, 0.0, 1.649, 0.0, 0.0]"] ;
446 -> 470 ;
471 [label="chlorides <= -0.534\ngini = 0.695\nsamples = 80\nvalue = [0.0, 19.829, 5.578, 22.265, 10.398, 0.0]"] ;
445 -> 471 ;
472 [label="free sulfur dioxide <= -0.338\ngini = 0.591\nsamples = 31\nvalue = [0.0, 19.829, 3.586, 6.185, 3.899, 0.0]"] ;
471 -> 472 ;
473 [label="density <= -1.792\ngini = 0.382\nsamples = 16\nvalue = [0.0, 19.829, 1.992, 2.474, 1.3, 0.0]"] ;
472 -> 473 ;
474 [label="total sulfur dioxide <= -0.809\ngini = 0.402\nsamples = 7\nvalue = [0.0, 0.0, 0.797, 2.062, 0.0, 0.0]"] ;
473 -> 474 ;
475 [label="gini = 0.0\nsamples = 4\nvalue = [0.0, 0.0, 0.0, 1.649, 0.0, 0.0]"] ;
474 -> 475 ;
476 [label="chlorides <= -0.825\ngini = 0.449\nsamples = 3\nvalue = [0.0, 0.0, 0.797, 0.412, 0.0, 0.0]"] ;
474 -> 476 ;
477 [label="gini = 0.0\nsamples = 1\nvalue = [0.0, 0.0, 0.0, 0.412, 0.0, 0.0]"] ;
476 -> 477 ;
478 [label="gini = 0.0\nsamples = 2\nvalue = [0.0, 0.0, 0.797, 0.0, 0.0, 0.0]"] ;
476 -> 478 ;
479 [label="alcohol <= 0.865\ngini = 0.233\nsamples = 9\nvalue = [0.0, 19.829, 1.195, 0.412, 1.3, 0.0]"] ;
473 -> 479 ;
480 [label="fixed acidity <= -0.448\ngini = 0.471\nsamples = 3\nvalue = [0.0, 0.0, 0.797, 0.0, 1.3, 0.0]"] ;
479 -> 480 ;
481 [label="gini = 0.0\nsamples = 1\nvalue = [0.0, 0.0, 0.0, 0.0, 1.3, 0.0]"] ;
480 -> 481 ;
482 [label="gini = -0.0\nsamples = 2\nvalue = [0.0, 0.0, 0.797, 0.0, 0.0, 0.0]"] ;
480 -> 482 ;
483 [label="chlorides <= -0.775\ngini = 0.076\nsamples = 6\nvalue = [0.0, 19.829, 0.398, 0.412, 0.0, 0.0]"] ;
479 -> 483 ;
484 [label="residual sugar <= -0.545\ngini = 0.5\nsamples = 2\nvalue = [0.0, 0.0, 0.398, 0.412, 0.0, 0.0]"] ;
483 -> 484 ;
485 [label="gini = 0.0\nsamples = 1\nvalue = [0.0, 0.0, 0.398, 0.0, 0.0, 0.0]"] ;
484 -> 485 ;
486 [label="gini = 0.0\nsamples = 1\nvalue = [0.0, 0.0, 0.0, 0.412, 0.0, 0.0]"] ;
484 -> 486 ;
487 [label="gini = -0.0\nsamples = 4\nvalue = [0.0, 19.829, 0.0, 0.0, 0.0, 0.0]"] ;
483 -> 487 ;
488 [label="chlorides <= -0.695\ngini = 0.631\nsamples = 15\nvalue = [0.0, 0.0, 1.594, 3.711, 2.6, 0.0]"] ;
472 -> 488 ;
489 [label="total sulfur dioxide <= -0.27\ngini = 0.477\nsamples = 10\nvalue = [0.0, 0.0, 1.594, 2.474, 0.0, 0.0]"] ;
488 -> 489 ;
490 [label="gini = 0.0\nsamples = 3\nvalue = [0.0, 0.0, 1.195, 0.0, 0.0, 0.0]"] ;
489 -> 490 ;
491 [label="citric acid <= -0.102\ngini = 0.239\nsamples = 7\nvalue = [0.0, 0.0, 0.398, 2.474, 0.0, 0.0]"] ;
489 -> 491 ;
492 [label="gini = 0.0\nsamples = 6\nvalue = [0.0, 0.0, 0.0, 2.474, 0.0, 0.0]"] ;
491 -> 492 ;
493 [label="gini = -0.0\nsamples = 1\nvalue = [0.0, 0.0, 0.398, 0.0, 0.0, 0.0]"] ;
491 -> 493 ;
494 [label="total sulfur dioxide <= -0.18\ngini = 0.437\nsamples = 5\nvalue = [0.0, 0.0, 0.0, 1.237, 2.6, 0.0]"] ;
488 -> 494 ;
495 [label="gini = 0.0\nsamples = 2\nvalue = [0.0, 0.0, 0.0, 0.825, 0.0, 0.0]"] ;
494 -> 495 ;
496 [label="fixed acidity <= -1.943\ngini = 0.236\nsamples = 3\nvalue = [0.0, 0.0, 0.0, 0.412, 2.6, 0.0]"] ;
494 -> 496 ;
497 [label="gini = 0.0\nsamples = 1\nvalue = [0.0, 0.0, 0.0, 0.412, 0.0, 0.0]"] ;
496 -> 497 ;
498 [label="gini = 0.0\nsamples = 2\nvalue = [0.0, 0.0, 0.0, 0.0, 2.6, 0.0]"] ;
496 -> 498 ;
499 [label="total sulfur dioxide <= -0.943\ngini = 0.495\nsamples = 49\nvalue = [0.0, 0.0, 1.992, 16.08, 6.499, 0.0]"] ;
471 -> 499 ;
500 [label="citric acid <= 0.72\ngini = 0.603\nsamples = 16\nvalue = [0.0, 0.0, 1.594, 3.299, 5.199, 0.0]"] ;
499 -> 500 ;
501 [label="pH <= 0.78\ngini = 0.518\nsamples = 11\nvalue = [0.0, 0.0, 1.594, 1.237, 5.199, 0.0]"] ;
500 -> 501 ;
502 [label="pH <= -0.126\ngini = 0.236\nsamples = 6\nvalue = [0.0, 0.0, 0.0, 0.825, 5.199, 0.0]"] ;
501 -> 502 ;
503 [label="gini = 0.0\nsamples = 1\nvalue = [0.0, 0.0, 0.0, 0.412, 0.0, 0.0]"] ;
502 -> 503 ;
504 [label="density <= -0.952\ngini = 0.136\nsamples = 5\nvalue = [0.0, 0.0, 0.0, 0.412, 5.199, 0.0]"] ;
502 -> 504 ;
505 [label="gini = 0.0\nsamples = 3\nvalue = [0.0, 0.0, 0.0, 0.0, 3.899, 0.0]"] ;
504 -> 505 ;
506 [label="density <= -0.504\ngini = 0.366\nsamples = 2\nvalue = [0.0, 0.0, 0.0, 0.412, 1.3, 0.0]"] ;
504 -> 506 ;
507 [label="gini = 0.0\nsamples = 1\nvalue = [0.0, 0.0, 0.0, 0.412, 0.0, 0.0]"] ;
506 -> 507 ;
508 [label="gini = 0.0\nsamples = 1\nvalue = [0.0, 0.0, 0.0, 0.0, 1.3, 0.0]"] ;
506 -> 508 ;
509 [label="alcohol <= 0.865\ngini = 0.327\nsamples = 5\nvalue = [0.0, 0.0, 1.594, 0.412, 0.0, 0.0]"] ;
501 -> 509 ;
510 [label="gini = 0.0\nsamples = 1\nvalue = [0.0, 0.0, 0.0, 0.412, 0.0, 0.0]"] ;
509 -> 510 ;
511 [label="gini = -0.0\nsamples = 4\nvalue = [0.0, 0.0, 1.594, 0.0, 0.0, 0.0]"] ;
509 -> 511 ;
512 [label="gini = 0.0\nsamples = 5\nvalue = [0.0, 0.0, 0.0, 2.062, 0.0, 0.0]"] ;
500 -> 512 ;
513 [label="sulphates <= -0.258\ngini = 0.212\nsamples = 33\nvalue = [0.0, 0.0, 0.398, 12.782, 1.3, 0.0]"] ;
499 -> 513 ;
514 [label="residual sugar <= 0.612\ngini = 0.06\nsamples = 31\nvalue = [0.0, 0.0, 0.398, 12.369, 0.0, 0.0]"] ;
513 -> 514 ;
515 [label="gini = 0.0\nsamples = 29\nvalue = [0.0, 0.0, 0.0, 11.957, 0.0, 0.0]"] ;
514 -> 515 ;
516 [label="residual sugar <= 1.082\ngini = 0.5\nsamples = 2\nvalue = [0.0, 0.0, 0.398, 0.412, 0.0, 0.0]"] ;
514 -> 516 ;
517 [label="gini = 0.0\nsamples = 1\nvalue = [0.0, 0.0, 0.398, 0.0, 0.0, 0.0]"] ;
516 -> 517 ;
518 [label="gini = 0.0\nsamples = 1\nvalue = [0.0, 0.0, 0.0, 0.412, 0.0, 0.0]"] ;
516 -> 518 ;
519 [label="fixed acidity <= -1.397\ngini = 0.366\nsamples = 2\nvalue = [0.0, 0.0, 0.0, 0.412, 1.3, 0.0]"] ;
513 -> 519 ;
520 [label="gini = 0.0\nsamples = 1\nvalue = [0.0, 0.0, 0.0, 0.412, 0.0, 0.0]"] ;
519 -> 520 ;
521 [label="gini = 0.0\nsamples = 1\nvalue = [0.0, 0.0, 0.0, 0.0, 1.3, 0.0]"] ;
519 -> 521 ;
522 [label="density <= -0.833\ngini = 0.565\nsamples = 160\nvalue = [0.0, 4.957, 3.188, 28.862, 92.286, 177.639]"] ;
444 -> 522 ;
523 [label="sulphates <= 0.955\ngini = 0.403\nsamples = 71\nvalue = [0.0, 0.0, 0.797, 11.132, 42.893, 159.875]"] ;
522 -> 523 ;
524 [label="citric acid <= -1.207\ngini = 0.332\nsamples = 55\nvalue = [0.0, 0.0, 0.797, 8.659, 29.895, 159.875]"] ;
523 -> 524 ;
525 [label="density <= -1.544\ngini = 0.366\nsamples = 10\nvalue = [0.0, 0.0, 0.0, 2.062, 6.499, 0.0]"] ;
524 -> 525 ;
526 [label="volatile acidity <= -0.809\ngini = 0.2\nsamples = 7\nvalue = [0.0, 0.0, 0.0, 0.825, 6.499, 0.0]"] ;
525 -> 526 ;
527 [label="gini = 0.0\nsamples = 2\nvalue = [0.0, 0.0, 0.0, 0.825, 0.0, 0.0]"] ;
526 -> 527 ;
528 [label="gini = 0.0\nsamples = 5\nvalue = [0.0, 0.0, 0.0, 0.0, 6.499, 0.0]"] ;
526 -> 528 ;
529 [label="gini = 0.0\nsamples = 3\nvalue = [0.0, 0.0, 0.0, 1.237, 0.0, 0.0]"] ;
525 -> 529 ;
530 [label="volatile acidity <= -0.978\ngini = 0.281\nsamples = 45\nvalue = [0.0, 0.0, 0.797, 6.597, 23.396, 159.875]"] ;
524 -> 530 ;
531 [label="pH <= -1.711\ngini = 0.542\nsamples = 17\nvalue = [0.0, 0.0, 0.0, 1.649, 15.598, 17.764]"] ;
530 -> 531 ;
532 [label="gini = 0.0\nsamples = 1\nvalue = [0.0, 0.0, 0.0, 0.0, 0.0, 17.764]"] ;
531 -> 532 ;
533 [label="total sulfur dioxide <= 0.105\ngini = 0.173\nsamples = 16\nvalue = [0.0, 0.0, 0.0, 1.649, 15.598, 0.0]"] ;
531 -> 533 ;
534 [label="density <= -0.899\ngini = 0.095\nsamples = 14\nvalue = [0.0, 0.0, 0.0, 0.825, 15.598, 0.0]"] ;
533 -> 534 ;
535 [label="pH <= -1.193\ngini = 0.05\nsamples = 13\nvalue = [0.0, 0.0, 0.0, 0.412, 15.598, 0.0]"] ;
534 -> 535 ;
536 [label="gini = 0.0\nsamples = 1\nvalue = [0.0, 0.0, 0.0, 0.412, 0.0, 0.0]"] ;
535 -> 536 ;
537 [label="gini = -0.0\nsamples = 12\nvalue = [0.0, 0.0, 0.0, 0.0, 15.598, 0.0]"] ;
535 -> 537 ;
538 [label="gini = -0.0\nsamples = 1\nvalue = [0.0, 0.0, 0.0, 0.412, 0.0, 0.0]"] ;
534 -> 538 ;
539 [label="gini = -0.0\nsamples = 2\nvalue = [0.0, 0.0, 0.0, 0.825, 0.0, 0.0]"] ;
533 -> 539 ;
540 [label="sulphates <= 0.117\ngini = 0.163\nsamples = 28\nvalue = [0.0, 0.0, 0.797, 4.948, 7.799, 142.111]"] ;
530 -> 540 ;
541 [label="pH <= 2.042\ngini = 0.596\nsamples = 9\nvalue = [0.0, 0.0, 0.797, 2.474, 1.3, 0.0]"] ;
540 -> 541 ;
542 [label="gini = 0.0\nsamples = 6\nvalue = [0.0, 0.0, 0.0, 2.474, 0.0, 0.0]"] ;
541 -> 542 ;
543 [label="volatile acidity <= -0.357\ngini = 0.471\nsamples = 3\nvalue = [0.0, 0.0, 0.797, 0.0, 1.3, 0.0]"] ;
541 -> 543 ;
544 [label="gini = 0.0\nsamples = 1\nvalue = [0.0, 0.0, 0.0, 0.0, 1.3, 0.0]"] ;
543 -> 544 ;
545 [label="gini = -0.0\nsamples = 2\nvalue = [0.0, 0.0, 0.797, 0.0, 0.0, 0.0]"] ;
543 -> 545 ;
546 [label="residual sugar <= -0.008\ngini = 0.113\nsamples = 19\nvalue = [0.0, 0.0, 0.0, 2.474, 6.499, 142.111]"] ;
540 -> 546 ;
547 [label="density <= -1.104\ngini = 0.093\nsamples = 17\nvalue = [0.0, 0.0, 0.0, 2.062, 5.199, 142.111]"] ;
546 -> 547 ;
548 [label="free sulfur dioxide <= 2.614\ngini = 0.03\nsamples = 10\nvalue = [0.0, 0.0, 0.0, 1.649, 0.0, 106.583]"] ;
547 -> 548 ;
549 [label="alcohol <= 0.865\ngini = 0.023\nsamples = 9\nvalue = [0.0, 0.0, 0.0, 1.237, 0.0, 106.583]"] ;
548 -> 549 ;
550 [label="gini = 0.0\nsamples = 1\nvalue = [0.0, 0.0, 0.0, 0.412, 0.0, 0.0]"] ;
549 -> 550 ;
551 [label="total sulfur dioxide <= 1.437\ngini = 0.015\nsamples = 8\nvalue = [0.0, 0.0, 0.0, 0.825, 0.0, 106.583]"] ;
549 -> 551 ;
552 [label="alcohol <= 1.612\ngini = 0.008\nsamples = 7\nvalue = [0.0, 0.0, 0.0, 0.412, 0.0, 106.583]"] ;
551 -> 552 ;
553 [label="fixed acidity <= -0.219\ngini = 0.044\nsamples = 2\nvalue = [0.0, 0.0, 0.0, 0.412, 0.0, 17.764]"] ;
552 -> 553 ;
554 [label="gini = 0.0\nsamples = 1\nvalue = [0.0, 0.0, 0.0, 0.0, 0.0, 17.764]"] ;
553 -> 554 ;
555 [label="gini = -0.0\nsamples = 1\nvalue = [0.0, 0.0, 0.0, 0.412, 0.0, 0.0]"] ;
553 -> 555 ;
556 [label="gini = -0.0\nsamples = 5\nvalue = [0.0, 0.0, 0.0, 0.0, 0.0, 88.819]"] ;
552 -> 556 ;
557 [label="gini = -0.0\nsamples = 1\nvalue = [0.0, 0.0, 0.0, 0.412, 0.0, 0.0]"] ;
551 -> 557 ;
558 [label="gini = -0.0\nsamples = 1\nvalue = [0.0, 0.0, 0.0, 0.412, 0.0, 0.0]"] ;
548 -> 558 ;
559 [label="residual sugar <= -0.31\ngini = 0.238\nsamples = 7\nvalue = [0.0, 0.0, 0.0, 0.412, 5.199, 35.528]"] ;
547 -> 559 ;
560 [label="volatile acidity <= -0.837\ngini = 0.146\nsamples = 5\nvalue = [0.0, 0.0, 0.0, 0.412, 2.6, 35.528]"] ;
559 -> 560 ;
561 [label="gini = 0.0\nsamples = 2\nvalue = [0.0, 0.0, 0.0, 0.0, 2.6, 0.0]"] ;
560 -> 561 ;
562 [label="chlorides <= -0.685\ngini = 0.023\nsamples = 3\nvalue = [0.0, 0.0, 0.0, 0.412, 0.0, 35.528]"] ;
560 -> 562 ;
563 [label="gini = 0.0\nsamples = 1\nvalue = [0.0, 0.0, 0.0, 0.412, 0.0, 0.0]"] ;
562 -> 563 ;
564 [label="gini = 0.0\nsamples = 2\nvalue = [0.0, 0.0, 0.0, 0.0, 0.0, 35.528]"] ;
562 -> 564 ;
565 [label="gini = -0.0\nsamples = 2\nvalue = [0.0, 0.0, 0.0, 0.0, 2.6, 0.0]"] ;
559 -> 565 ;
566 [label="total sulfur dioxide <= -0.509\ngini = 0.366\nsamples = 2\nvalue = [0.0, 0.0, 0.0, 0.412, 1.3, 0.0]"] ;
546 -> 566 ;
567 [label="gini = 0.0\nsamples = 1\nvalue = [0.0, 0.0, 0.0, 0.412, 0.0, 0.0]"] ;
566 -> 567 ;
568 [label="gini = 0.0\nsamples = 1\nvalue = [0.0, 0.0, 0.0, 0.0, 1.3, 0.0]"] ;
566 -> 568 ;
569 [label="total sulfur dioxide <= -0.644\ngini = 0.269\nsamples = 16\nvalue = [0.0, 0.0, 0.0, 2.474, 12.998, 0.0]"] ;
523 -> 569 ;
570 [label="gini = 0.0\nsamples = 3\nvalue = [0.0, 0.0, 0.0, 1.237, 0.0, 0.0]"] ;
569 -> 570 ;
571 [label="free sulfur dioxide <= 0.253\ngini = 0.159\nsamples = 13\nvalue = [0.0, 0.0, 0.0, 1.237, 12.998, 0.0]"] ;
569 -> 571 ;
572 [label="gini = -0.0\nsamples = 9\nvalue = [0.0, 0.0, 0.0, 0.0, 11.698, 0.0]"] ;
571 -> 572 ;
573 [label="volatile acidity <= -1.26\ngini = 0.5\nsamples = 4\nvalue = [0.0, 0.0, 0.0, 1.237, 1.3, 0.0]"] ;
571 -> 573 ;
574 [label="gini = 0.0\nsamples = 1\nvalue = [0.0, 0.0, 0.0, 0.0, 1.3, 0.0]"] ;
573 -> 574 ;
575 [label="gini = 0.0\nsamples = 3\nvalue = [0.0, 0.0, 0.0, 1.237, 0.0, 0.0]"] ;
573 -> 575 ;
576 [label="alcohol <= 2.172\ngini = 0.636\nsamples = 89\nvalue = [0.0, 4.957, 2.391, 17.73, 49.392, 17.764]"] ;
522 -> 576 ;
577 [label="volatile acidity <= 2.113\ngini = 0.484\nsamples = 82\nvalue = [0.0, 4.957, 1.594, 16.493, 48.092, 0.0]"] ;
576 -> 577 ;
578 [label="pH <= 0.683\ngini = 0.409\nsamples = 81\nvalue = [0.0, 0.0, 1.594, 16.493, 48.092, 0.0]"] ;
577 -> 578 ;
579 [label="chlorides <= 0.843\ngini = 0.349\nsamples = 64\nvalue = [0.0, 0.0, 1.195, 11.132, 44.193, 0.0]"] ;
578 -> 579 ;
580 [label="chlorides <= -0.554\ngini = 0.321\nsamples = 60\nvalue = [0.0, 0.0, 1.195, 9.483, 44.193, 0.0]"] ;
579 -> 580 ;
581 [label="alcohol <= 1.425\ngini = 0.477\nsamples = 5\nvalue = [0.0, 0.0, 0.797, 1.237, 0.0, 0.0]"] ;
580 -> 581 ;
582 [label="total sulfur dioxide <= 0.674\ngini = 0.449\nsamples = 3\nvalue = [0.0, 0.0, 0.797, 0.412, 0.0, 0.0]"] ;
581 -> 582 ;
583 [label="gini = 0.0\nsamples = 2\nvalue = [0.0, 0.0, 0.797, 0.0, 0.0, 0.0]"] ;
582 -> 583 ;
584 [label="gini = 0.0\nsamples = 1\nvalue = [0.0, 0.0, 0.0, 0.412, 0.0, 0.0]"] ;
582 -> 584 ;
585 [label="residual sugar <= -0.444\ngini = 0.0\nsamples = 2\nvalue = [0.0, 0.0, 0.0, 0.825, 0.0, 0.0]"] ;
581 -> 585 ;
586 [label="gini = 0.0\nsamples = 1\nvalue = [0.0, 0.0, 0.0, 0.412, 0.0, 0.0]"] ;
585 -> 586 ;
587 [label="gini = 0.0\nsamples = 1\nvalue = [0.0, 0.0, 0.0, 0.412, 0.0, 0.0]"] ;
585 -> 587 ;
588 [label="fixed acidity <= 0.873\ngini = 0.276\nsamples = 55\nvalue = [0.0, 0.0, 0.398, 8.246, 44.193, 0.0]"] ;
580 -> 588 ;
589 [label="sulphates <= 0.117\ngini = 0.066\nsamples = 20\nvalue = [0.0, 0.0, 0.0, 0.825, 23.396, 0.0]"] ;
588 -> 589 ;
590 [label="total sulfur dioxide <= -1.033\ngini = 0.475\nsamples = 3\nvalue = [0.0, 0.0, 0.0, 0.825, 1.3, 0.0]"] ;
589 -> 590 ;
591 [label="gini = 0.0\nsamples = 1\nvalue = [0.0, 0.0, 0.0, 0.0, 1.3, 0.0]"] ;
590 -> 591 ;
592 [label="fixed acidity <= -0.247\ngini = 0.0\nsamples = 2\nvalue = [0.0, 0.0, 0.0, 0.825, 0.0, 0.0]"] ;
590 -> 592 ;
593 [label="gini = 0.0\nsamples = 1\nvalue = [0.0, 0.0, 0.0, 0.412, 0.0, 0.0]"] ;
592 -> 593 ;
594 [label="gini = 0.0\nsamples = 1\nvalue = [0.0, 0.0, 0.0, 0.412, 0.0, 0.0]"] ;
592 -> 594 ;
595 [label="gini = 0.0\nsamples = 17\nvalue = [0.0, 0.0, 0.0, 0.0, 22.097, 0.0]"] ;
589 -> 595 ;
596 [label="residual sugar <= -0.142\ngini = 0.404\nsamples = 35\nvalue = [0.0, 0.0, 0.398, 7.422, 20.797, 0.0]"] ;
588 -> 596 ;
597 [label="sulphates <= -0.027\ngini = 0.384\nsamples = 10\nvalue = [0.0, 0.0, 0.0, 3.711, 1.3, 0.0]"] ;
596 -> 597 ;
598 [label="gini = 0.0\nsamples = 1\nvalue = [0.0, 0.0, 0.0, 0.0, 1.3, 0.0]"] ;
597 -> 598 ;
599 [label="gini = -0.0\nsamples = 9\nvalue = [0.0, 0.0, 0.0, 3.711, 0.0, 0.0]"] ;
597 -> 599 ;
600 [label="sulphates <= 1.157\ngini = 0.293\nsamples = 25\nvalue = [0.0, 0.0, 0.398, 3.711, 19.497, 0.0]"] ;
596 -> 600 ;
601 [label="alcohol <= 1.799\ngini = 0.202\nsamples = 21\nvalue = [0.0, 0.0, 0.398, 2.062, 19.497, 0.0]"] ;
600 -> 601 ;
602 [label="density <= -0.552\ngini = 0.113\nsamples = 18\nvalue = [0.0, 0.0, 0.398, 0.825, 19.497, 0.0]"] ;
601 -> 602 ;
603 [label="gini = 0.0\nsamples = 1\nvalue = [0.0, 0.0, 0.0, 0.412, 0.0, 0.0]"] ;
602 -> 603 ;
604 [label="pH <= -0.223\ngini = 0.077\nsamples = 17\nvalue = [0.0, 0.0, 0.398, 0.412, 19.497, 0.0]"] ;
602 -> 604 ;
605 [label="pH <= -0.417\ngini = 0.041\nsamples = 16\nvalue = [0.0, 0.0, 0.0, 0.412, 19.497, 0.0]"] ;
604 -> 605 ;
606 [label="gini = 0.0\nsamples = 14\nvalue = [0.0, 0.0, 0.0, 0.0, 18.197, 0.0]"] ;
605 -> 606 ;
607 [label="sulphates <= 0.695\ngini = 0.366\nsamples = 2\nvalue = [0.0, 0.0, 0.0, 0.412, 1.3, 0.0]"] ;
605 -> 607 ;
608 [label="gini = 0.0\nsamples = 1\nvalue = [0.0, 0.0, 0.0, 0.412, 0.0, 0.0]"] ;
607 -> 608 ;
609 [label="gini = 0.0\nsamples = 1\nvalue = [0.0, 0.0, 0.0, 0.0, 1.3, 0.0]"] ;
607 -> 609 ;
610 [label="gini = -0.0\nsamples = 1\nvalue = [0.0, 0.0, 0.398, 0.0, 0.0, 0.0]"] ;
604 -> 610 ;
611 [label="gini = -0.0\nsamples = 3\nvalue = [0.0, 0.0, 0.0, 1.237, 0.0, 0.0]"] ;
601 -> 611 ;
612 [label="gini = -0.0\nsamples = 4\nvalue = [0.0, 0.0, 0.0, 1.649, 0.0, 0.0]"] ;
600 -> 612 ;
613 [label="sulphates <= 0.435\ngini = 0.0\nsamples = 4\nvalue = [0.0, 0.0, 0.0, 1.649, 0.0, 0.0]"] ;
579 -> 613 ;
614 [label="gini = 0.0\nsamples = 1\nvalue = [0.0, 0.0, 0.0, 0.412, 0.0, 0.0]"] ;
613 -> 614 ;
615 [label="gini = 0.0\nsamples = 3\nvalue = [0.0, 0.0, 0.0, 1.237, 0.0, 0.0]"] ;
613 -> 615 ;
616 [label="density <= -0.567\ngini = 0.527\nsamples = 17\nvalue = [0.0, 0.0, 0.398, 5.36, 3.899, 0.0]"] ;
578 -> 616 ;
617 [label="sulphates <= 0.262\ngini = 0.515\nsamples = 9\nvalue = [0.0, 0.0, 0.398, 2.062, 3.899, 0.0]"] ;
616 -> 617 ;
618 [label="alcohol <= 1.239\ngini = 0.271\nsamples = 6\nvalue = [0.0, 0.0, 0.398, 2.062, 0.0, 0.0]"] ;
617 -> 618 ;
619 [label="volatile acidity <= 0.575\ngini = 0.0\nsamples = 5\nvalue = [0.0, 0.0, 0.0, 2.062, 0.0, 0.0]"] ;
618 -> 619 ;
620 [label="gini = 0.0\nsamples = 1\nvalue = [0.0, 0.0, 0.0, 0.412, 0.0, 0.0]"] ;
619 -> 620 ;
621 [label="gini = 0.0\nsamples = 4\nvalue = [0.0, 0.0, 0.0, 1.649, 0.0, 0.0]"] ;
619 -> 621 ;
622 [label="gini = -0.0\nsamples = 1\nvalue = [0.0, 0.0, 0.398, 0.0, 0.0, 0.0]"] ;
618 -> 622 ;
623 [label="gini = 0.0\nsamples = 3\nvalue = [0.0, 0.0, 0.0, 0.0, 3.899, 0.0]"] ;
617 -> 623 ;
624 [label="gini = 0.0\nsamples = 8\nvalue = [0.0, 0.0, 0.0, 3.299, 0.0, 0.0]"] ;
616 -> 624 ;
625 [label="gini = -0.0\nsamples = 1\nvalue = [0.0, 4.957, 0.0, 0.0, 0.0, 0.0]"] ;
577 -> 625 ;
626 [label="pH <= 0.23\ngini = 0.282\nsamples = 7\nvalue = [0.0, 0.0, 0.797, 1.237, 1.3, 17.764]"] ;
576 -> 626 ;
627 [label="pH <= -0.19\ngini = 0.653\nsamples = 6\nvalue = [0.0, 0.0, 0.797, 1.237, 1.3, 0.0]"] ;
626 -> 627 ;
628 [label="fixed acidity <= 2.511\ngini = 0.477\nsamples = 5\nvalue = [0.0, 0.0, 0.797, 1.237, 0.0, 0.0]"] ;
627 -> 628 ;
629 [label="gini = 0.0\nsamples = 3\nvalue = [0.0, 0.0, 0.0, 1.237, 0.0, 0.0]"] ;
628 -> 629 ;
630 [label="gini = -0.0\nsamples = 2\nvalue = [0.0, 0.0, 0.797, 0.0, 0.0, 0.0]"] ;
628 -> 630 ;
631 [label="gini = 0.0\nsamples = 1\nvalue = [0.0, 0.0, 0.0, 0.0, 1.3, 0.0]"] ;
627 -> 631 ;
632 [label="gini = 0.0\nsamples = 1\nvalue = [0.0, 0.0, 0.0, 0.0, 0.0, 17.764]"] ;
626 -> 632 ;
}